%YAML 1.1
%TAG !u! tag:unity3d.com,2011:
--- !u!29 &1
OcclusionCullingSettings:
  m_ObjectHideFlags: 0
  serializedVersion: 2
  m_OcclusionBakeSettings:
    smallestOccluder: 5
    smallestHole: 0.25
    backfaceThreshold: 100
  m_SceneGUID: 00000000000000000000000000000000
  m_OcclusionCullingData: {fileID: 0}
--- !u!104 &2
RenderSettings:
  m_ObjectHideFlags: 0
  serializedVersion: 9
  m_Fog: 0
  m_FogColor: {r: 0.5, g: 0.5, b: 0.5, a: 1}
  m_FogMode: 3
  m_FogDensity: 0.01
  m_LinearFogStart: 0
  m_LinearFogEnd: 300
  m_AmbientSkyColor: {r: 0.212, g: 0.227, b: 0.259, a: 1}
  m_AmbientEquatorColor: {r: 0.114, g: 0.125, b: 0.133, a: 1}
  m_AmbientGroundColor: {r: 0.047, g: 0.043, b: 0.035, a: 1}
  m_AmbientIntensity: 1
  m_AmbientMode: 3
  m_SubtractiveShadowColor: {r: 0.42, g: 0.478, b: 0.627, a: 1}
  m_SkyboxMaterial: {fileID: 0}
  m_HaloStrength: 0.5
  m_FlareStrength: 1
  m_FlareFadeSpeed: 3
  m_HaloTexture: {fileID: 0}
  m_SpotCookie: {fileID: 10001, guid: 0000000000000000e000000000000000, type: 0}
  m_DefaultReflectionMode: 0
  m_DefaultReflectionResolution: 128
  m_ReflectionBounces: 1
  m_ReflectionIntensity: 1
  m_CustomReflection: {fileID: 0}
  m_Sun: {fileID: 0}
  m_IndirectSpecularColor: {r: 0, g: 0, b: 0, a: 1}
  m_UseRadianceAmbientProbe: 0
--- !u!157 &3
LightmapSettings:
  m_ObjectHideFlags: 0
  serializedVersion: 11
  m_GIWorkflowMode: 1
  m_GISettings:
    serializedVersion: 2
    m_BounceScale: 1
    m_IndirectOutputScale: 1
    m_AlbedoBoost: 1
    m_EnvironmentLightingMode: 0
    m_EnableBakedLightmaps: 0
    m_EnableRealtimeLightmaps: 0
  m_LightmapEditorSettings:
    serializedVersion: 10
    m_Resolution: 2
    m_BakeResolution: 40
    m_AtlasSize: 1024
    m_AO: 0
    m_AOMaxDistance: 1
    m_CompAOExponent: 1
    m_CompAOExponentDirect: 0
    m_Padding: 2
    m_LightmapParameters: {fileID: 0}
    m_LightmapsBakeMode: 1
    m_TextureCompression: 1
    m_FinalGather: 0
    m_FinalGatherFiltering: 1
    m_FinalGatherRayCount: 256
    m_ReflectionCompression: 2
    m_MixedBakeMode: 2
    m_BakeBackend: 1
    m_PVRSampling: 1
    m_PVRDirectSampleCount: 32
    m_PVRSampleCount: 500
    m_PVRBounces: 2
    m_PVRFilterTypeDirect: 0
    m_PVRFilterTypeIndirect: 0
    m_PVRFilterTypeAO: 0
    m_PVRFilteringMode: 1
    m_PVRCulling: 1
    m_PVRFilteringGaussRadiusDirect: 1
    m_PVRFilteringGaussRadiusIndirect: 5
    m_PVRFilteringGaussRadiusAO: 2
    m_PVRFilteringAtrousPositionSigmaDirect: 0.5
    m_PVRFilteringAtrousPositionSigmaIndirect: 2
    m_PVRFilteringAtrousPositionSigmaAO: 1
    m_ShowResolutionOverlay: 1
  m_LightingDataAsset: {fileID: 0}
  m_UseShadowmask: 1
--- !u!196 &4
NavMeshSettings:
  serializedVersion: 2
  m_ObjectHideFlags: 0
  m_BuildSettings:
    serializedVersion: 2
    agentTypeID: 0
    agentRadius: 0.5
    agentHeight: 2
    agentSlope: 45
    agentClimb: 0.4
    ledgeDropHeight: 0
    maxJumpAcrossDistance: 0
    minRegionArea: 2
    manualCellSize: 0
    cellSize: 0.16666667
    manualTileSize: 0
    tileSize: 256
    accuratePlacement: 0
    debug:
      m_Flags: 0
  m_NavMeshData: {fileID: 0}
--- !u!1001 &684655478
PrefabInstance:
  m_ObjectHideFlags: 0
  serializedVersion: 2
  m_Modification:
    m_TransformParent: {fileID: 0}
    m_Modifications:
    - target: {fileID: 7933080570195662534, guid: 3d6642c587548db4a85d8f076d5f0f60,
        type: 3}
      propertyPath: m_Name
      value: UncoloredCorner (2)
      objectReference: {fileID: 0}
    - target: {fileID: 4014571219289437333, guid: 3d6642c587548db4a85d8f076d5f0f60,
        type: 3}
      propertyPath: m_LocalPosition.x
      value: 9.67
      objectReference: {fileID: 0}
    - target: {fileID: 4014571219289437333, guid: 3d6642c587548db4a85d8f076d5f0f60,
        type: 3}
      propertyPath: m_LocalPosition.y
      value: -6.12
      objectReference: {fileID: 0}
    - target: {fileID: 4014571219289437333, guid: 3d6642c587548db4a85d8f076d5f0f60,
        type: 3}
      propertyPath: m_LocalPosition.z
      value: 0
      objectReference: {fileID: 0}
    - target: {fileID: 4014571219289437333, guid: 3d6642c587548db4a85d8f076d5f0f60,
        type: 3}
      propertyPath: m_LocalRotation.x
      value: -0
      objectReference: {fileID: 0}
    - target: {fileID: 4014571219289437333, guid: 3d6642c587548db4a85d8f076d5f0f60,
        type: 3}
      propertyPath: m_LocalRotation.y
      value: -0
      objectReference: {fileID: 0}
    - target: {fileID: 4014571219289437333, guid: 3d6642c587548db4a85d8f076d5f0f60,
        type: 3}
      propertyPath: m_LocalRotation.z
      value: 1
      objectReference: {fileID: 0}
    - target: {fileID: 4014571219289437333, guid: 3d6642c587548db4a85d8f076d5f0f60,
        type: 3}
      propertyPath: m_LocalRotation.w
      value: -0.00000026822087
      objectReference: {fileID: 0}
    - target: {fileID: 4014571219289437333, guid: 3d6642c587548db4a85d8f076d5f0f60,
        type: 3}
      propertyPath: m_RootOrder
      value: 9
      objectReference: {fileID: 0}
    - target: {fileID: 4014571219289437333, guid: 3d6642c587548db4a85d8f076d5f0f60,
        type: 3}
      propertyPath: m_LocalEulerAnglesHint.x
      value: 0
      objectReference: {fileID: 0}
    - target: {fileID: 4014571219289437333, guid: 3d6642c587548db4a85d8f076d5f0f60,
        type: 3}
      propertyPath: m_LocalEulerAnglesHint.y
      value: 0
      objectReference: {fileID: 0}
    - target: {fileID: 4014571219289437333, guid: 3d6642c587548db4a85d8f076d5f0f60,
        type: 3}
      propertyPath: m_LocalEulerAnglesHint.z
      value: 179.99998
      objectReference: {fileID: 0}
    - target: {fileID: 4014571219289437333, guid: 3d6642c587548db4a85d8f076d5f0f60,
        type: 3}
      propertyPath: m_LocalScale.x
      value: 0.90513337
      objectReference: {fileID: 0}
    - target: {fileID: 4014571219289437333, guid: 3d6642c587548db4a85d8f076d5f0f60,
        type: 3}
      propertyPath: m_LocalScale.y
      value: 0.90513337
      objectReference: {fileID: 0}
    - target: {fileID: 4014571219289437333, guid: 3d6642c587548db4a85d8f076d5f0f60,
        type: 3}
      propertyPath: m_LocalScale.z
      value: 1.8102667
      objectReference: {fileID: 0}
    m_RemovedComponents: []
  m_SourcePrefab: {fileID: 100100000, guid: 3d6642c587548db4a85d8f076d5f0f60, type: 3}
--- !u!1001 &848538452
PrefabInstance:
  m_ObjectHideFlags: 0
  serializedVersion: 2
  m_Modification:
    m_TransformParent: {fileID: 0}
    m_Modifications:
    - target: {fileID: 2246676268534247110, guid: 41df90256a5eb83438aac6358728efd1,
        type: 3}
      propertyPath: m_Name
      value: BlockingWall (3)
      objectReference: {fileID: 0}
    - target: {fileID: 2246676268534247106, guid: 41df90256a5eb83438aac6358728efd1,
        type: 3}
      propertyPath: m_LocalPosition.x
      value: -0.81
      objectReference: {fileID: 0}
    - target: {fileID: 2246676268534247106, guid: 41df90256a5eb83438aac6358728efd1,
        type: 3}
      propertyPath: m_LocalPosition.y
      value: -13.486
      objectReference: {fileID: 0}
    - target: {fileID: 2246676268534247106, guid: 41df90256a5eb83438aac6358728efd1,
        type: 3}
      propertyPath: m_LocalPosition.z
      value: 0
      objectReference: {fileID: 0}
    - target: {fileID: 2246676268534247106, guid: 41df90256a5eb83438aac6358728efd1,
        type: 3}
      propertyPath: m_LocalRotation.x
      value: 0
      objectReference: {fileID: 0}
    - target: {fileID: 2246676268534247106, guid: 41df90256a5eb83438aac6358728efd1,
        type: 3}
      propertyPath: m_LocalRotation.y
      value: 0
      objectReference: {fileID: 0}
    - target: {fileID: 2246676268534247106, guid: 41df90256a5eb83438aac6358728efd1,
        type: 3}
      propertyPath: m_LocalRotation.z
      value: 0.7071068
      objectReference: {fileID: 0}
    - target: {fileID: 2246676268534247106, guid: 41df90256a5eb83438aac6358728efd1,
        type: 3}
      propertyPath: m_LocalRotation.w
      value: 0.7071068
      objectReference: {fileID: 0}
    - target: {fileID: 2246676268534247106, guid: 41df90256a5eb83438aac6358728efd1,
        type: 3}
      propertyPath: m_RootOrder
      value: 6
      objectReference: {fileID: 0}
    - target: {fileID: 2246676268534247106, guid: 41df90256a5eb83438aac6358728efd1,
        type: 3}
      propertyPath: m_LocalEulerAnglesHint.x
      value: 0
      objectReference: {fileID: 0}
    - target: {fileID: 2246676268534247106, guid: 41df90256a5eb83438aac6358728efd1,
        type: 3}
      propertyPath: m_LocalEulerAnglesHint.y
      value: 0
      objectReference: {fileID: 0}
    - target: {fileID: 2246676268534247106, guid: 41df90256a5eb83438aac6358728efd1,
        type: 3}
      propertyPath: m_LocalEulerAnglesHint.z
      value: 90
      objectReference: {fileID: 0}
    - target: {fileID: 2246676268534247106, guid: 41df90256a5eb83438aac6358728efd1,
        type: 3}
      propertyPath: m_LocalScale.y
      value: 31.92481
      objectReference: {fileID: 0}
    - target: {fileID: 2246676268534247106, guid: 41df90256a5eb83438aac6358728efd1,
        type: 3}
      propertyPath: m_LocalScale.x
      value: 10.262167
      objectReference: {fileID: 0}
    m_RemovedComponents: []
  m_SourcePrefab: {fileID: 100100000, guid: 41df90256a5eb83438aac6358728efd1, type: 3}
--- !u!1001 &868940102
PrefabInstance:
  m_ObjectHideFlags: 0
  serializedVersion: 2
  m_Modification:
    m_TransformParent: {fileID: 0}
    m_Modifications:
    - target: {fileID: 6273507619849182112, guid: 006a17d4514f88c43b8f89e20fd01f93,
        type: 3}
      propertyPath: m_Name
      value: Level
      objectReference: {fileID: 0}
    - target: {fileID: 6273507619849182119, guid: 006a17d4514f88c43b8f89e20fd01f93,
        type: 3}
      propertyPath: m_LocalPosition.x
      value: 11.503662
      objectReference: {fileID: 0}
    - target: {fileID: 6273507619849182119, guid: 006a17d4514f88c43b8f89e20fd01f93,
        type: 3}
      propertyPath: m_LocalPosition.y
      value: 4.0576344
      objectReference: {fileID: 0}
    - target: {fileID: 6273507619849182119, guid: 006a17d4514f88c43b8f89e20fd01f93,
        type: 3}
      propertyPath: m_LocalPosition.z
      value: -0.14713542
      objectReference: {fileID: 0}
    - target: {fileID: 6273507619849182119, guid: 006a17d4514f88c43b8f89e20fd01f93,
        type: 3}
      propertyPath: m_LocalRotation.x
      value: 0
      objectReference: {fileID: 0}
    - target: {fileID: 6273507619849182119, guid: 006a17d4514f88c43b8f89e20fd01f93,
        type: 3}
      propertyPath: m_LocalRotation.y
      value: 0
      objectReference: {fileID: 0}
    - target: {fileID: 6273507619849182119, guid: 006a17d4514f88c43b8f89e20fd01f93,
        type: 3}
      propertyPath: m_LocalRotation.z
      value: 0
      objectReference: {fileID: 0}
    - target: {fileID: 6273507619849182119, guid: 006a17d4514f88c43b8f89e20fd01f93,
        type: 3}
      propertyPath: m_LocalRotation.w
      value: 1
      objectReference: {fileID: 0}
    - target: {fileID: 6273507619849182119, guid: 006a17d4514f88c43b8f89e20fd01f93,
        type: 3}
      propertyPath: m_RootOrder
      value: 2
      objectReference: {fileID: 0}
    - target: {fileID: 6273507619849182119, guid: 006a17d4514f88c43b8f89e20fd01f93,
        type: 3}
      propertyPath: m_LocalEulerAnglesHint.x
      value: 0
      objectReference: {fileID: 0}
    - target: {fileID: 6273507619849182119, guid: 006a17d4514f88c43b8f89e20fd01f93,
        type: 3}
      propertyPath: m_LocalEulerAnglesHint.y
      value: 0
      objectReference: {fileID: 0}
    - target: {fileID: 6273507619849182119, guid: 006a17d4514f88c43b8f89e20fd01f93,
        type: 3}
      propertyPath: m_LocalEulerAnglesHint.z
      value: 0
      objectReference: {fileID: 0}
    - target: {fileID: 7544558296223026120, guid: 006a17d4514f88c43b8f89e20fd01f93,
        type: 3}
      propertyPath: m_LocalPosition.z
      value: 0
      objectReference: {fileID: 0}
    - target: {fileID: 4194004156104344060, guid: 006a17d4514f88c43b8f89e20fd01f93,
        type: 3}
      propertyPath: m_LocalPosition.x
      value: -21.65
      objectReference: {fileID: 0}
    - target: {fileID: 4194004156104344060, guid: 006a17d4514f88c43b8f89e20fd01f93,
        type: 3}
      propertyPath: m_LocalPosition.y
      value: -2.03
      objectReference: {fileID: 0}
    - target: {fileID: 6322928365120658058, guid: 006a17d4514f88c43b8f89e20fd01f93,
        type: 3}
      propertyPath: m_LocalPosition.x
      value: -5.81
      objectReference: {fileID: 0}
    - target: {fileID: 6322928365120658058, guid: 006a17d4514f88c43b8f89e20fd01f93,
        type: 3}
      propertyPath: m_LocalPosition.y
      value: -3.09
      objectReference: {fileID: 0}
    - target: {fileID: 4194004156104344061, guid: 006a17d4514f88c43b8f89e20fd01f93,
        type: 3}
      propertyPath: NextScene
      value: 2
      objectReference: {fileID: 0}
    m_RemovedComponents: []
  m_SourcePrefab: {fileID: 100100000, guid: 006a17d4514f88c43b8f89e20fd01f93, type: 3}
--- !u!1 &868940103 stripped
GameObject:
  m_CorrespondingSourceObject: {fileID: 4194004156104344063, guid: 006a17d4514f88c43b8f89e20fd01f93,
    type: 3}
  m_PrefabInstance: {fileID: 868940102}
  m_PrefabAsset: {fileID: 0}
--- !u!1 &868940104 stripped
GameObject:
  m_CorrespondingSourceObject: {fileID: 2489328972499189785, guid: 006a17d4514f88c43b8f89e20fd01f93,
    type: 3}
  m_PrefabInstance: {fileID: 868940102}
  m_PrefabAsset: {fileID: 0}
--- !u!1001 &943928409
PrefabInstance:
  m_ObjectHideFlags: 0
  serializedVersion: 2
  m_Modification:
    m_TransformParent: {fileID: 0}
    m_Modifications:
    - target: {fileID: 1239494302922524874, guid: 93afd3c8625084846a7d499c76caf25f,
        type: 3}
      propertyPath: m_Name
      value: Level_Background_Texture
      objectReference: {fileID: 0}
    - target: {fileID: 546678826816063160, guid: 93afd3c8625084846a7d499c76caf25f,
        type: 3}
      propertyPath: m_LocalPosition.x
      value: -0.6
      objectReference: {fileID: 0}
    - target: {fileID: 546678826816063160, guid: 93afd3c8625084846a7d499c76caf25f,
        type: 3}
      propertyPath: m_LocalPosition.y
      value: -2
      objectReference: {fileID: 0}
    - target: {fileID: 546678826816063160, guid: 93afd3c8625084846a7d499c76caf25f,
        type: 3}
      propertyPath: m_LocalPosition.z
      value: -1.6296333
      objectReference: {fileID: 0}
    - target: {fileID: 546678826816063160, guid: 93afd3c8625084846a7d499c76caf25f,
        type: 3}
      propertyPath: m_LocalRotation.x
      value: 0
      objectReference: {fileID: 0}
    - target: {fileID: 546678826816063160, guid: 93afd3c8625084846a7d499c76caf25f,
        type: 3}
      propertyPath: m_LocalRotation.y
      value: 0
      objectReference: {fileID: 0}
    - target: {fileID: 546678826816063160, guid: 93afd3c8625084846a7d499c76caf25f,
        type: 3}
      propertyPath: m_LocalRotation.z
      value: 0
      objectReference: {fileID: 0}
    - target: {fileID: 546678826816063160, guid: 93afd3c8625084846a7d499c76caf25f,
        type: 3}
      propertyPath: m_LocalRotation.w
      value: 1
      objectReference: {fileID: 0}
    - target: {fileID: 546678826816063160, guid: 93afd3c8625084846a7d499c76caf25f,
        type: 3}
      propertyPath: m_RootOrder
      value: 7
      objectReference: {fileID: 0}
    - target: {fileID: 546678826816063160, guid: 93afd3c8625084846a7d499c76caf25f,
        type: 3}
      propertyPath: m_LocalEulerAnglesHint.x
      value: 0
      objectReference: {fileID: 0}
    - target: {fileID: 546678826816063160, guid: 93afd3c8625084846a7d499c76caf25f,
        type: 3}
      propertyPath: m_LocalEulerAnglesHint.y
      value: 0
      objectReference: {fileID: 0}
    - target: {fileID: 546678826816063160, guid: 93afd3c8625084846a7d499c76caf25f,
        type: 3}
      propertyPath: m_LocalEulerAnglesHint.z
      value: 0
      objectReference: {fileID: 0}
    - target: {fileID: 546678826816063160, guid: 93afd3c8625084846a7d499c76caf25f,
        type: 3}
      propertyPath: m_LocalScale.x
      value: 1.4372
      objectReference: {fileID: 0}
    - target: {fileID: 546678826816063160, guid: 93afd3c8625084846a7d499c76caf25f,
        type: 3}
      propertyPath: m_LocalScale.y
      value: 1.4372
      objectReference: {fileID: 0}
    - target: {fileID: 546678826816063160, guid: 93afd3c8625084846a7d499c76caf25f,
        type: 3}
      propertyPath: m_LocalScale.z
      value: 1.4372
      objectReference: {fileID: 0}
    m_RemovedComponents: []
  m_SourcePrefab: {fileID: 100100000, guid: 93afd3c8625084846a7d499c76caf25f, type: 3}
--- !u!1001 &1042886410
PrefabInstance:
  m_ObjectHideFlags: 0
  serializedVersion: 2
  m_Modification:
    m_TransformParent: {fileID: 0}
    m_Modifications:
    - target: {fileID: 7933080570195662534, guid: 3d6642c587548db4a85d8f076d5f0f60,
        type: 3}
      propertyPath: m_Name
      value: UncoloredCorner
      objectReference: {fileID: 0}
    - target: {fileID: 4014571219289437333, guid: 3d6642c587548db4a85d8f076d5f0f60,
        type: 3}
      propertyPath: m_LocalPosition.x
      value: -11.33
      objectReference: {fileID: 0}
    - target: {fileID: 4014571219289437333, guid: 3d6642c587548db4a85d8f076d5f0f60,
        type: 3}
      propertyPath: m_LocalPosition.y
      value: 4.53
      objectReference: {fileID: 0}
    - target: {fileID: 4014571219289437333, guid: 3d6642c587548db4a85d8f076d5f0f60,
        type: 3}
      propertyPath: m_LocalPosition.z
      value: 0
      objectReference: {fileID: 0}
    - target: {fileID: 4014571219289437333, guid: 3d6642c587548db4a85d8f076d5f0f60,
        type: 3}
      propertyPath: m_LocalRotation.x
      value: 0
      objectReference: {fileID: 0}
    - target: {fileID: 4014571219289437333, guid: 3d6642c587548db4a85d8f076d5f0f60,
        type: 3}
      propertyPath: m_LocalRotation.y
      value: 0
      objectReference: {fileID: 0}
    - target: {fileID: 4014571219289437333, guid: 3d6642c587548db4a85d8f076d5f0f60,
        type: 3}
      propertyPath: m_LocalRotation.z
      value: 0
      objectReference: {fileID: 0}
    - target: {fileID: 4014571219289437333, guid: 3d6642c587548db4a85d8f076d5f0f60,
        type: 3}
      propertyPath: m_LocalRotation.w
      value: 1
      objectReference: {fileID: 0}
    - target: {fileID: 4014571219289437333, guid: 3d6642c587548db4a85d8f076d5f0f60,
        type: 3}
      propertyPath: m_RootOrder
      value: 1
      objectReference: {fileID: 0}
    - target: {fileID: 4014571219289437333, guid: 3d6642c587548db4a85d8f076d5f0f60,
        type: 3}
      propertyPath: m_LocalEulerAnglesHint.x
      value: 0
      objectReference: {fileID: 0}
    - target: {fileID: 4014571219289437333, guid: 3d6642c587548db4a85d8f076d5f0f60,
        type: 3}
      propertyPath: m_LocalEulerAnglesHint.y
      value: 0
      objectReference: {fileID: 0}
    - target: {fileID: 4014571219289437333, guid: 3d6642c587548db4a85d8f076d5f0f60,
        type: 3}
      propertyPath: m_LocalEulerAnglesHint.z
      value: 0
      objectReference: {fileID: 0}
    - target: {fileID: 4014571219289437333, guid: 3d6642c587548db4a85d8f076d5f0f60,
        type: 3}
      propertyPath: m_LocalScale.x
      value: 0.90513337
      objectReference: {fileID: 0}
    - target: {fileID: 4014571219289437333, guid: 3d6642c587548db4a85d8f076d5f0f60,
        type: 3}
      propertyPath: m_LocalScale.y
      value: 0.90513337
      objectReference: {fileID: 0}
    - target: {fileID: 4014571219289437333, guid: 3d6642c587548db4a85d8f076d5f0f60,
        type: 3}
      propertyPath: m_LocalScale.z
      value: 1.8102667
      objectReference: {fileID: 0}
    m_RemovedComponents: []
  m_SourcePrefab: {fileID: 100100000, guid: 3d6642c587548db4a85d8f076d5f0f60, type: 3}
--- !u!1001 &1238825669
PrefabInstance:
  m_ObjectHideFlags: 0
  serializedVersion: 2
  m_Modification:
    m_TransformParent: {fileID: 0}
    m_Modifications:
    - target: {fileID: 7933080570195662534, guid: 3d6642c587548db4a85d8f076d5f0f60,
        type: 3}
      propertyPath: m_Name
      value: UncoloredCorner (3)
      objectReference: {fileID: 0}
    - target: {fileID: 4014571219289437333, guid: 3d6642c587548db4a85d8f076d5f0f60,
        type: 3}
      propertyPath: m_LocalPosition.x
      value: 9.75
      objectReference: {fileID: 0}
    - target: {fileID: 4014571219289437333, guid: 3d6642c587548db4a85d8f076d5f0f60,
        type: 3}
      propertyPath: m_LocalPosition.y
      value: 4.6
      objectReference: {fileID: 0}
    - target: {fileID: 4014571219289437333, guid: 3d6642c587548db4a85d8f076d5f0f60,
        type: 3}
      propertyPath: m_LocalPosition.z
      value: 0
      objectReference: {fileID: 0}
    - target: {fileID: 4014571219289437333, guid: 3d6642c587548db4a85d8f076d5f0f60,
        type: 3}
      propertyPath: m_LocalRotation.x
      value: -0
      objectReference: {fileID: 0}
    - target: {fileID: 4014571219289437333, guid: 3d6642c587548db4a85d8f076d5f0f60,
        type: 3}
      propertyPath: m_LocalRotation.y
      value: -0
      objectReference: {fileID: 0}
    - target: {fileID: 4014571219289437333, guid: 3d6642c587548db4a85d8f076d5f0f60,
        type: 3}
      propertyPath: m_LocalRotation.z
      value: 0.707107
      objectReference: {fileID: 0}
    - target: {fileID: 4014571219289437333, guid: 3d6642c587548db4a85d8f076d5f0f60,
        type: 3}
      propertyPath: m_LocalRotation.w
      value: -0.7071066
      objectReference: {fileID: 0}
    - target: {fileID: 4014571219289437333, guid: 3d6642c587548db4a85d8f076d5f0f60,
        type: 3}
      propertyPath: m_RootOrder
      value: 10
      objectReference: {fileID: 0}
    - target: {fileID: 4014571219289437333, guid: 3d6642c587548db4a85d8f076d5f0f60,
        type: 3}
      propertyPath: m_LocalEulerAnglesHint.x
      value: 0
      objectReference: {fileID: 0}
    - target: {fileID: 4014571219289437333, guid: 3d6642c587548db4a85d8f076d5f0f60,
        type: 3}
      propertyPath: m_LocalEulerAnglesHint.y
      value: 0
      objectReference: {fileID: 0}
    - target: {fileID: 4014571219289437333, guid: 3d6642c587548db4a85d8f076d5f0f60,
        type: 3}
      propertyPath: m_LocalEulerAnglesHint.z
      value: 270
      objectReference: {fileID: 0}
    - target: {fileID: 4014571219289437333, guid: 3d6642c587548db4a85d8f076d5f0f60,
        type: 3}
      propertyPath: m_LocalScale.x
      value: 0.90513337
      objectReference: {fileID: 0}
    - target: {fileID: 4014571219289437333, guid: 3d6642c587548db4a85d8f076d5f0f60,
        type: 3}
      propertyPath: m_LocalScale.y
      value: 0.90513337
      objectReference: {fileID: 0}
    - target: {fileID: 4014571219289437333, guid: 3d6642c587548db4a85d8f076d5f0f60,
        type: 3}
      propertyPath: m_LocalScale.z
      value: 1.8102667
      objectReference: {fileID: 0}
    m_RemovedComponents: []
  m_SourcePrefab: {fileID: 100100000, guid: 3d6642c587548db4a85d8f076d5f0f60, type: 3}
--- !u!1001 &1297530554
PrefabInstance:
  m_ObjectHideFlags: 0
  serializedVersion: 2
  m_Modification:
    m_TransformParent: {fileID: 0}
    m_Modifications:
    - target: {fileID: 7933080570195662534, guid: 3d6642c587548db4a85d8f076d5f0f60,
        type: 3}
      propertyPath: m_Name
      value: UncoloredCorner (1)
      objectReference: {fileID: 0}
    - target: {fileID: 4014571219289437333, guid: 3d6642c587548db4a85d8f076d5f0f60,
        type: 3}
      propertyPath: m_LocalPosition.x
      value: -11.33
      objectReference: {fileID: 0}
    - target: {fileID: 4014571219289437333, guid: 3d6642c587548db4a85d8f076d5f0f60,
        type: 3}
      propertyPath: m_LocalPosition.y
      value: -6
      objectReference: {fileID: 0}
    - target: {fileID: 4014571219289437333, guid: 3d6642c587548db4a85d8f076d5f0f60,
        type: 3}
      propertyPath: m_LocalPosition.z
      value: 0
      objectReference: {fileID: 0}
    - target: {fileID: 4014571219289437333, guid: 3d6642c587548db4a85d8f076d5f0f60,
        type: 3}
      propertyPath: m_LocalRotation.x
      value: -0
      objectReference: {fileID: 0}
    - target: {fileID: 4014571219289437333, guid: 3d6642c587548db4a85d8f076d5f0f60,
        type: 3}
      propertyPath: m_LocalRotation.y
      value: -0
      objectReference: {fileID: 0}
    - target: {fileID: 4014571219289437333, guid: 3d6642c587548db4a85d8f076d5f0f60,
        type: 3}
      propertyPath: m_LocalRotation.z
      value: 0.70710677
      objectReference: {fileID: 0}
    - target: {fileID: 4014571219289437333, guid: 3d6642c587548db4a85d8f076d5f0f60,
        type: 3}
      propertyPath: m_LocalRotation.w
      value: 0.7071068
      objectReference: {fileID: 0}
    - target: {fileID: 4014571219289437333, guid: 3d6642c587548db4a85d8f076d5f0f60,
        type: 3}
      propertyPath: m_RootOrder
      value: 8
      objectReference: {fileID: 0}
    - target: {fileID: 4014571219289437333, guid: 3d6642c587548db4a85d8f076d5f0f60,
        type: 3}
      propertyPath: m_LocalEulerAnglesHint.x
      value: 0
      objectReference: {fileID: 0}
    - target: {fileID: 4014571219289437333, guid: 3d6642c587548db4a85d8f076d5f0f60,
        type: 3}
      propertyPath: m_LocalEulerAnglesHint.y
      value: 0
      objectReference: {fileID: 0}
    - target: {fileID: 4014571219289437333, guid: 3d6642c587548db4a85d8f076d5f0f60,
        type: 3}
      propertyPath: m_LocalEulerAnglesHint.z
      value: 90.00001
      objectReference: {fileID: 0}
    - target: {fileID: 4014571219289437333, guid: 3d6642c587548db4a85d8f076d5f0f60,
        type: 3}
      propertyPath: m_LocalScale.x
      value: 0.90513337
      objectReference: {fileID: 0}
    - target: {fileID: 4014571219289437333, guid: 3d6642c587548db4a85d8f076d5f0f60,
        type: 3}
      propertyPath: m_LocalScale.y
      value: 0.90513337
      objectReference: {fileID: 0}
    - target: {fileID: 4014571219289437333, guid: 3d6642c587548db4a85d8f076d5f0f60,
        type: 3}
      propertyPath: m_LocalScale.z
      value: 1.8102667
      objectReference: {fileID: 0}
    m_RemovedComponents: []
  m_SourcePrefab: {fileID: 100100000, guid: 3d6642c587548db4a85d8f076d5f0f60, type: 3}
--- !u!1001 &1326573118
PrefabInstance:
  m_ObjectHideFlags: 0
  serializedVersion: 2
  m_Modification:
    m_TransformParent: {fileID: 0}
    m_Modifications:
    - target: {fileID: 2246676268534247110, guid: 41df90256a5eb83438aac6358728efd1,
        type: 3}
      propertyPath: m_Name
      value: BlockingWall (2)
      objectReference: {fileID: 0}
    - target: {fileID: 2246676268534247106, guid: 41df90256a5eb83438aac6358728efd1,
        type: 3}
      propertyPath: m_LocalPosition.x
      value: -0.811
      objectReference: {fileID: 0}
    - target: {fileID: 2246676268534247106, guid: 41df90256a5eb83438aac6358728efd1,
        type: 3}
      propertyPath: m_LocalPosition.y
      value: 10.9
      objectReference: {fileID: 0}
    - target: {fileID: 2246676268534247106, guid: 41df90256a5eb83438aac6358728efd1,
        type: 3}
      propertyPath: m_LocalPosition.z
      value: 0
      objectReference: {fileID: 0}
    - target: {fileID: 2246676268534247106, guid: 41df90256a5eb83438aac6358728efd1,
        type: 3}
      propertyPath: m_LocalRotation.x
      value: 0
      objectReference: {fileID: 0}
    - target: {fileID: 2246676268534247106, guid: 41df90256a5eb83438aac6358728efd1,
        type: 3}
      propertyPath: m_LocalRotation.y
      value: 0
      objectReference: {fileID: 0}
    - target: {fileID: 2246676268534247106, guid: 41df90256a5eb83438aac6358728efd1,
        type: 3}
      propertyPath: m_LocalRotation.z
      value: 0.7071068
      objectReference: {fileID: 0}
    - target: {fileID: 2246676268534247106, guid: 41df90256a5eb83438aac6358728efd1,
        type: 3}
      propertyPath: m_LocalRotation.w
      value: 0.7071068
      objectReference: {fileID: 0}
    - target: {fileID: 2246676268534247106, guid: 41df90256a5eb83438aac6358728efd1,
        type: 3}
      propertyPath: m_RootOrder
      value: 5
      objectReference: {fileID: 0}
    - target: {fileID: 2246676268534247106, guid: 41df90256a5eb83438aac6358728efd1,
        type: 3}
      propertyPath: m_LocalEulerAnglesHint.x
      value: 0
      objectReference: {fileID: 0}
    - target: {fileID: 2246676268534247106, guid: 41df90256a5eb83438aac6358728efd1,
        type: 3}
      propertyPath: m_LocalEulerAnglesHint.y
      value: 0
      objectReference: {fileID: 0}
    - target: {fileID: 2246676268534247106, guid: 41df90256a5eb83438aac6358728efd1,
        type: 3}
      propertyPath: m_LocalEulerAnglesHint.z
      value: 90
      objectReference: {fileID: 0}
    - target: {fileID: 2246676268534247106, guid: 41df90256a5eb83438aac6358728efd1,
        type: 3}
      propertyPath: m_LocalScale.y
      value: 31.924738
      objectReference: {fileID: 0}
    - target: {fileID: 2246676268534247106, guid: 41df90256a5eb83438aac6358728efd1,
        type: 3}
      propertyPath: m_LocalScale.x
      value: 8.170191
      objectReference: {fileID: 0}
    m_RemovedComponents: []
  m_SourcePrefab: {fileID: 100100000, guid: 41df90256a5eb83438aac6358728efd1, type: 3}
--- !u!1001 &1483447790
PrefabInstance:
  m_ObjectHideFlags: 0
  serializedVersion: 2
  m_Modification:
    m_TransformParent: {fileID: 0}
    m_Modifications:
    - target: {fileID: 3249013744812420687, guid: 1e5915d42a5524c458ee0a0b718f4385,
        type: 3}
      propertyPath: m_Name
      value: Background
      objectReference: {fileID: 0}
    - target: {fileID: 3249013744812420685, guid: 1e5915d42a5524c458ee0a0b718f4385,
        type: 3}
      propertyPath: m_LocalPosition.x
      value: -0.5870222
      objectReference: {fileID: 0}
    - target: {fileID: 3249013744812420685, guid: 1e5915d42a5524c458ee0a0b718f4385,
        type: 3}
      propertyPath: m_LocalPosition.y
      value: 2.010882
      objectReference: {fileID: 0}
    - target: {fileID: 3249013744812420685, guid: 1e5915d42a5524c458ee0a0b718f4385,
        type: 3}
      propertyPath: m_LocalPosition.z
      value: -0.022471286
      objectReference: {fileID: 0}
    - target: {fileID: 3249013744812420685, guid: 1e5915d42a5524c458ee0a0b718f4385,
        type: 3}
      propertyPath: m_LocalRotation.x
      value: 0
      objectReference: {fileID: 0}
    - target: {fileID: 3249013744812420685, guid: 1e5915d42a5524c458ee0a0b718f4385,
        type: 3}
      propertyPath: m_LocalRotation.y
      value: 0
      objectReference: {fileID: 0}
    - target: {fileID: 3249013744812420685, guid: 1e5915d42a5524c458ee0a0b718f4385,
        type: 3}
      propertyPath: m_LocalRotation.z
      value: 0
      objectReference: {fileID: 0}
    - target: {fileID: 3249013744812420685, guid: 1e5915d42a5524c458ee0a0b718f4385,
        type: 3}
      propertyPath: m_LocalRotation.w
      value: 1
      objectReference: {fileID: 0}
    - target: {fileID: 3249013744812420685, guid: 1e5915d42a5524c458ee0a0b718f4385,
        type: 3}
      propertyPath: m_RootOrder
      value: 3
      objectReference: {fileID: 0}
    - target: {fileID: 3249013744812420685, guid: 1e5915d42a5524c458ee0a0b718f4385,
        type: 3}
      propertyPath: m_LocalEulerAnglesHint.x
      value: 0
      objectReference: {fileID: 0}
    - target: {fileID: 3249013744812420685, guid: 1e5915d42a5524c458ee0a0b718f4385,
        type: 3}
      propertyPath: m_LocalEulerAnglesHint.y
      value: 0
      objectReference: {fileID: 0}
    - target: {fileID: 3249013744812420685, guid: 1e5915d42a5524c458ee0a0b718f4385,
        type: 3}
      propertyPath: m_LocalEulerAnglesHint.z
      value: 0
      objectReference: {fileID: 0}
    - target: {fileID: 3249013744812420684, guid: 1e5915d42a5524c458ee0a0b718f4385,
        type: 3}
      propertyPath: player
      value: 
      objectReference: {fileID: 868940104}
    - target: {fileID: 3249013744812420684, guid: 1e5915d42a5524c458ee0a0b718f4385,
        type: 3}
      propertyPath: target
      value: 
      objectReference: {fileID: 868940103}
    - target: {fileID: 3249013744812420684, guid: 1e5915d42a5524c458ee0a0b718f4385,
        type: 3}
      propertyPath: MainColor.rgba
      value: 16755972
      objectReference: {fileID: 0}
    m_RemovedComponents: []
  m_SourcePrefab: {fileID: 100100000, guid: 1e5915d42a5524c458ee0a0b718f4385, type: 3}
--- !u!1001 &1612012281
PrefabInstance:
  m_ObjectHideFlags: 0
  serializedVersion: 2
  m_Modification:
    m_TransformParent: {fileID: 0}
    m_Modifications:
    - target: {fileID: 2246676268534247110, guid: 41df90256a5eb83438aac6358728efd1,
        type: 3}
      propertyPath: m_Name
      value: BlockingWall
      objectReference: {fileID: 0}
    - target: {fileID: 2246676268534247106, guid: 41df90256a5eb83438aac6358728efd1,
        type: 3}
      propertyPath: m_LocalPosition.x
      value: -19.082
      objectReference: {fileID: 0}
    - target: {fileID: 2246676268534247106, guid: 41df90256a5eb83438aac6358728efd1,
        type: 3}
      propertyPath: m_LocalPosition.y
      value: -1.813
      objectReference: {fileID: 0}
    - target: {fileID: 2246676268534247106, guid: 41df90256a5eb83438aac6358728efd1,
        type: 3}
      propertyPath: m_LocalPosition.z
      value: 0
      objectReference: {fileID: 0}
    - target: {fileID: 2246676268534247106, guid: 41df90256a5eb83438aac6358728efd1,
        type: 3}
      propertyPath: m_LocalRotation.x
      value: 0
      objectReference: {fileID: 0}
    - target: {fileID: 2246676268534247106, guid: 41df90256a5eb83438aac6358728efd1,
        type: 3}
      propertyPath: m_LocalRotation.y
      value: 0
      objectReference: {fileID: 0}
    - target: {fileID: 2246676268534247106, guid: 41df90256a5eb83438aac6358728efd1,
        type: 3}
      propertyPath: m_LocalRotation.z
      value: 0
      objectReference: {fileID: 0}
    - target: {fileID: 2246676268534247106, guid: 41df90256a5eb83438aac6358728efd1,
        type: 3}
      propertyPath: m_LocalRotation.w
      value: 1
      objectReference: {fileID: 0}
    - target: {fileID: 2246676268534247106, guid: 41df90256a5eb83438aac6358728efd1,
        type: 3}
      propertyPath: m_RootOrder
      value: 0
      objectReference: {fileID: 0}
    - target: {fileID: 2246676268534247106, guid: 41df90256a5eb83438aac6358728efd1,
        type: 3}
      propertyPath: m_LocalEulerAnglesHint.x
      value: 0
      objectReference: {fileID: 0}
    - target: {fileID: 2246676268534247106, guid: 41df90256a5eb83438aac6358728efd1,
        type: 3}
      propertyPath: m_LocalEulerAnglesHint.y
      value: 0
      objectReference: {fileID: 0}
    - target: {fileID: 2246676268534247106, guid: 41df90256a5eb83438aac6358728efd1,
        type: 3}
      propertyPath: m_LocalEulerAnglesHint.z
      value: 0
      objectReference: {fileID: 0}
    - target: {fileID: 2246676268534247106, guid: 41df90256a5eb83438aac6358728efd1,
        type: 3}
      propertyPath: m_LocalScale.y
      value: 33.623173
      objectReference: {fileID: 0}
    - target: {fileID: 2246676268534247106, guid: 41df90256a5eb83438aac6358728efd1,
        type: 3}
      propertyPath: m_LocalScale.x
      value: 11.053572
      objectReference: {fileID: 0}
    m_RemovedComponents: []
  m_SourcePrefab: {fileID: 100100000, guid: 41df90256a5eb83438aac6358728efd1, type: 3}
--- !u!1001 &1872862497
PrefabInstance:
  m_ObjectHideFlags: 0
  serializedVersion: 2
  m_Modification:
    m_TransformParent: {fileID: 0}
    m_Modifications:
    - target: {fileID: 2246676268534247110, guid: 41df90256a5eb83438aac6358728efd1,
        type: 3}
      propertyPath: m_Name
      value: BlockingWall (1)
      objectReference: {fileID: 0}
    - target: {fileID: 2246676268534247106, guid: 41df90256a5eb83438aac6358728efd1,
        type: 3}
      propertyPath: m_LocalPosition.x
      value: 17.466
      objectReference: {fileID: 0}
    - target: {fileID: 2246676268534247106, guid: 41df90256a5eb83438aac6358728efd1,
        type: 3}
      propertyPath: m_LocalPosition.y
      value: -1.8089
      objectReference: {fileID: 0}
    - target: {fileID: 2246676268534247106, guid: 41df90256a5eb83438aac6358728efd1,
        type: 3}
      propertyPath: m_LocalPosition.z
      value: 0
      objectReference: {fileID: 0}
    - target: {fileID: 2246676268534247106, guid: 41df90256a5eb83438aac6358728efd1,
        type: 3}
      propertyPath: m_LocalRotation.x
      value: 0
      objectReference: {fileID: 0}
    - target: {fileID: 2246676268534247106, guid: 41df90256a5eb83438aac6358728efd1,
        type: 3}
      propertyPath: m_LocalRotation.y
      value: 0
      objectReference: {fileID: 0}
    - target: {fileID: 2246676268534247106, guid: 41df90256a5eb83438aac6358728efd1,
        type: 3}
      propertyPath: m_LocalRotation.z
      value: 0
      objectReference: {fileID: 0}
    - target: {fileID: 2246676268534247106, guid: 41df90256a5eb83438aac6358728efd1,
        type: 3}
      propertyPath: m_LocalRotation.w
      value: 1
      objectReference: {fileID: 0}
    - target: {fileID: 2246676268534247106, guid: 41df90256a5eb83438aac6358728efd1,
        type: 3}
      propertyPath: m_RootOrder
      value: 4
      objectReference: {fileID: 0}
    - target: {fileID: 2246676268534247106, guid: 41df90256a5eb83438aac6358728efd1,
        type: 3}
      propertyPath: m_LocalEulerAnglesHint.x
      value: 0
      objectReference: {fileID: 0}
    - target: {fileID: 2246676268534247106, guid: 41df90256a5eb83438aac6358728efd1,
        type: 3}
      propertyPath: m_LocalEulerAnglesHint.y
      value: 0
      objectReference: {fileID: 0}
    - target: {fileID: 2246676268534247106, guid: 41df90256a5eb83438aac6358728efd1,
        type: 3}
      propertyPath: m_LocalEulerAnglesHint.z
      value: 0
      objectReference: {fileID: 0}
    - target: {fileID: 2246676268534247106, guid: 41df90256a5eb83438aac6358728efd1,
        type: 3}
      propertyPath: m_LocalScale.y
      value: 33.59872
      objectReference: {fileID: 0}
    - target: {fileID: 2246676268534247106, guid: 41df90256a5eb83438aac6358728efd1,
        type: 3}
      propertyPath: m_LocalScale.x
      value: 11.008958
      objectReference: {fileID: 0}
    m_RemovedComponents: []
  m_SourcePrefab: {fileID: 100100000, guid: 41df90256a5eb83438aac6358728efd1, type: 3}
