%YAML 1.1
%TAG !u! tag:unity3d.com,2011:
--- !u!29 &1
OcclusionCullingSettings:
  m_ObjectHideFlags: 0
  serializedVersion: 2
  m_OcclusionBakeSettings:
    smallestOccluder: 5
    smallestHole: 0.25
    backfaceThreshold: 100
  m_SceneGUID: 00000000000000000000000000000000
  m_OcclusionCullingData: {fileID: 0}
--- !u!104 &2
RenderSettings:
  m_ObjectHideFlags: 0
  serializedVersion: 9
  m_Fog: 0
  m_FogColor: {r: 0.5, g: 0.5, b: 0.5, a: 1}
  m_FogMode: 3
  m_FogDensity: 0.01
  m_LinearFogStart: 0
  m_LinearFogEnd: 300
  m_AmbientSkyColor: {r: 0.212, g: 0.227, b: 0.259, a: 1}
  m_AmbientEquatorColor: {r: 0.114, g: 0.125, b: 0.133, a: 1}
  m_AmbientGroundColor: {r: 0.047, g: 0.043, b: 0.035, a: 1}
  m_AmbientIntensity: 1
  m_AmbientMode: 3
  m_SubtractiveShadowColor: {r: 0.42, g: 0.478, b: 0.627, a: 1}
  m_SkyboxMaterial: {fileID: 0}
  m_HaloStrength: 0.5
  m_FlareStrength: 1
  m_FlareFadeSpeed: 3
  m_HaloTexture: {fileID: 0}
  m_SpotCookie: {fileID: 10001, guid: 0000000000000000e000000000000000, type: 0}
  m_DefaultReflectionMode: 0
  m_DefaultReflectionResolution: 128
  m_ReflectionBounces: 1
  m_ReflectionIntensity: 1
  m_CustomReflection: {fileID: 0}
  m_Sun: {fileID: 0}
  m_IndirectSpecularColor: {r: 0, g: 0, b: 0, a: 1}
  m_UseRadianceAmbientProbe: 0
--- !u!157 &3
LightmapSettings:
  m_ObjectHideFlags: 0
  serializedVersion: 11
  m_GIWorkflowMode: 1
  m_GISettings:
    serializedVersion: 2
    m_BounceScale: 1
    m_IndirectOutputScale: 1
    m_AlbedoBoost: 1
    m_EnvironmentLightingMode: 0
    m_EnableBakedLightmaps: 0
    m_EnableRealtimeLightmaps: 0
  m_LightmapEditorSettings:
    serializedVersion: 10
    m_Resolution: 2
    m_BakeResolution: 40
    m_AtlasSize: 1024
    m_AO: 0
    m_AOMaxDistance: 1
    m_CompAOExponent: 1
    m_CompAOExponentDirect: 0
    m_Padding: 2
    m_LightmapParameters: {fileID: 0}
    m_LightmapsBakeMode: 1
    m_TextureCompression: 1
    m_FinalGather: 0
    m_FinalGatherFiltering: 1
    m_FinalGatherRayCount: 256
    m_ReflectionCompression: 2
    m_MixedBakeMode: 2
    m_BakeBackend: 1
    m_PVRSampling: 1
    m_PVRDirectSampleCount: 32
    m_PVRSampleCount: 500
    m_PVRBounces: 2
    m_PVRFilterTypeDirect: 0
    m_PVRFilterTypeIndirect: 0
    m_PVRFilterTypeAO: 0
    m_PVRFilteringMode: 1
    m_PVRCulling: 1
    m_PVRFilteringGaussRadiusDirect: 1
    m_PVRFilteringGaussRadiusIndirect: 5
    m_PVRFilteringGaussRadiusAO: 2
    m_PVRFilteringAtrousPositionSigmaDirect: 0.5
    m_PVRFilteringAtrousPositionSigmaIndirect: 2
    m_PVRFilteringAtrousPositionSigmaAO: 1
    m_ShowResolutionOverlay: 1
  m_LightingDataAsset: {fileID: 0}
  m_UseShadowmask: 1
--- !u!196 &4
NavMeshSettings:
  serializedVersion: 2
  m_ObjectHideFlags: 0
  m_BuildSettings:
    serializedVersion: 2
    agentTypeID: 0
    agentRadius: 0.5
    agentHeight: 2
    agentSlope: 45
    agentClimb: 0.4
    ledgeDropHeight: 0
    maxJumpAcrossDistance: 0
    minRegionArea: 2
    manualCellSize: 0
    cellSize: 0.16666667
    manualTileSize: 0
    tileSize: 256
    accuratePlacement: 0
    debug:
      m_Flags: 0
  m_NavMeshData: {fileID: 0}
--- !u!1001 &99188229
PrefabInstance:
  m_ObjectHideFlags: 0
  serializedVersion: 2
  m_Modification:
    m_TransformParent: {fileID: 0}
    m_Modifications:
    - target: {fileID: 2246676268534247110, guid: 41df90256a5eb83438aac6358728efd1,
        type: 3}
      propertyPath: m_Name
      value: BlockingWall (14)
      objectReference: {fileID: 0}
    - target: {fileID: 2246676268534247106, guid: 41df90256a5eb83438aac6358728efd1,
        type: 3}
      propertyPath: m_LocalPosition.x
      value: -9.98
      objectReference: {fileID: 0}
    - target: {fileID: 2246676268534247106, guid: 41df90256a5eb83438aac6358728efd1,
        type: 3}
      propertyPath: m_LocalPosition.y
      value: 3.41
      objectReference: {fileID: 0}
    - target: {fileID: 2246676268534247106, guid: 41df90256a5eb83438aac6358728efd1,
        type: 3}
      propertyPath: m_LocalPosition.z
      value: 0
      objectReference: {fileID: 0}
    - target: {fileID: 2246676268534247106, guid: 41df90256a5eb83438aac6358728efd1,
        type: 3}
      propertyPath: m_LocalRotation.x
      value: 0
      objectReference: {fileID: 0}
    - target: {fileID: 2246676268534247106, guid: 41df90256a5eb83438aac6358728efd1,
        type: 3}
      propertyPath: m_LocalRotation.y
      value: 0
      objectReference: {fileID: 0}
    - target: {fileID: 2246676268534247106, guid: 41df90256a5eb83438aac6358728efd1,
        type: 3}
      propertyPath: m_LocalRotation.z
      value: 0.7071068
      objectReference: {fileID: 0}
    - target: {fileID: 2246676268534247106, guid: 41df90256a5eb83438aac6358728efd1,
        type: 3}
      propertyPath: m_LocalRotation.w
      value: 0.7071068
      objectReference: {fileID: 0}
    - target: {fileID: 2246676268534247106, guid: 41df90256a5eb83438aac6358728efd1,
        type: 3}
      propertyPath: m_RootOrder
      value: 11
      objectReference: {fileID: 0}
    - target: {fileID: 2246676268534247106, guid: 41df90256a5eb83438aac6358728efd1,
        type: 3}
      propertyPath: m_LocalEulerAnglesHint.x
      value: 0
      objectReference: {fileID: 0}
    - target: {fileID: 2246676268534247106, guid: 41df90256a5eb83438aac6358728efd1,
        type: 3}
      propertyPath: m_LocalEulerAnglesHint.y
      value: 0
      objectReference: {fileID: 0}
    - target: {fileID: 2246676268534247106, guid: 41df90256a5eb83438aac6358728efd1,
        type: 3}
      propertyPath: m_LocalEulerAnglesHint.z
      value: 90
      objectReference: {fileID: 0}
    - target: {fileID: 2246676268534247106, guid: 41df90256a5eb83438aac6358728efd1,
        type: 3}
      propertyPath: m_LocalScale.y
      value: 8.075055
      objectReference: {fileID: 0}
    - target: {fileID: 2246676268534247106, guid: 41df90256a5eb83438aac6358728efd1,
        type: 3}
      propertyPath: m_LocalScale.x
      value: 4.0488443
      objectReference: {fileID: 0}
    m_RemovedComponents: []
  m_SourcePrefab: {fileID: 100100000, guid: 41df90256a5eb83438aac6358728efd1, type: 3}
--- !u!1001 &358546282
PrefabInstance:
  m_ObjectHideFlags: 0
  serializedVersion: 2
  m_Modification:
    m_TransformParent: {fileID: 0}
    m_Modifications:
    - target: {fileID: 7933080570195662534, guid: 3d6642c587548db4a85d8f076d5f0f60,
        type: 3}
      propertyPath: m_Name
      value: UncoloredCorner (5)
      objectReference: {fileID: 0}
    - target: {fileID: 4014571219289437333, guid: 3d6642c587548db4a85d8f076d5f0f60,
        type: 3}
      propertyPath: m_LocalPosition.x
      value: -4.98
      objectReference: {fileID: 0}
    - target: {fileID: 4014571219289437333, guid: 3d6642c587548db4a85d8f076d5f0f60,
        type: 3}
      propertyPath: m_LocalPosition.y
      value: 2.5
      objectReference: {fileID: 0}
    - target: {fileID: 4014571219289437333, guid: 3d6642c587548db4a85d8f076d5f0f60,
        type: 3}
      propertyPath: m_LocalPosition.z
      value: 0
      objectReference: {fileID: 0}
    - target: {fileID: 4014571219289437333, guid: 3d6642c587548db4a85d8f076d5f0f60,
        type: 3}
      propertyPath: m_LocalRotation.x
      value: -0
      objectReference: {fileID: 0}
    - target: {fileID: 4014571219289437333, guid: 3d6642c587548db4a85d8f076d5f0f60,
        type: 3}
      propertyPath: m_LocalRotation.y
      value: -0
      objectReference: {fileID: 0}
    - target: {fileID: 4014571219289437333, guid: 3d6642c587548db4a85d8f076d5f0f60,
        type: 3}
      propertyPath: m_LocalRotation.z
      value: 0.00000016391276
      objectReference: {fileID: 0}
    - target: {fileID: 4014571219289437333, guid: 3d6642c587548db4a85d8f076d5f0f60,
        type: 3}
      propertyPath: m_LocalRotation.w
      value: -1
      objectReference: {fileID: 0}
    - target: {fileID: 4014571219289437333, guid: 3d6642c587548db4a85d8f076d5f0f60,
        type: 3}
      propertyPath: m_RootOrder
      value: 17
      objectReference: {fileID: 0}
    - target: {fileID: 4014571219289437333, guid: 3d6642c587548db4a85d8f076d5f0f60,
        type: 3}
      propertyPath: m_LocalEulerAnglesHint.x
      value: 0
      objectReference: {fileID: 0}
    - target: {fileID: 4014571219289437333, guid: 3d6642c587548db4a85d8f076d5f0f60,
        type: 3}
      propertyPath: m_LocalEulerAnglesHint.y
      value: 0
      objectReference: {fileID: 0}
    - target: {fileID: 4014571219289437333, guid: 3d6642c587548db4a85d8f076d5f0f60,
        type: 3}
      propertyPath: m_LocalEulerAnglesHint.z
      value: 360
      objectReference: {fileID: 0}
    - target: {fileID: 4014571219289437333, guid: 3d6642c587548db4a85d8f076d5f0f60,
        type: 3}
      propertyPath: m_LocalScale.x
      value: 0.38513473
      objectReference: {fileID: 0}
    - target: {fileID: 4014571219289437333, guid: 3d6642c587548db4a85d8f076d5f0f60,
        type: 3}
      propertyPath: m_LocalScale.y
      value: 0.38513473
      objectReference: {fileID: 0}
    - target: {fileID: 4014571219289437333, guid: 3d6642c587548db4a85d8f076d5f0f60,
        type: 3}
      propertyPath: m_LocalScale.z
      value: 0.77026945
      objectReference: {fileID: 0}
    m_RemovedComponents: []
  m_SourcePrefab: {fileID: 100100000, guid: 3d6642c587548db4a85d8f076d5f0f60, type: 3}
--- !u!1001 &391380097
PrefabInstance:
  m_ObjectHideFlags: 0
  serializedVersion: 2
  m_Modification:
    m_TransformParent: {fileID: 0}
    m_Modifications:
    - target: {fileID: 3249013744812420687, guid: 1e5915d42a5524c458ee0a0b718f4385,
        type: 3}
      propertyPath: m_Name
      value: Background (1)
      objectReference: {fileID: 0}
    - target: {fileID: 3249013744812420685, guid: 1e5915d42a5524c458ee0a0b718f4385,
        type: 3}
      propertyPath: m_LocalPosition.x
      value: -0.5870222
      objectReference: {fileID: 0}
    - target: {fileID: 3249013744812420685, guid: 1e5915d42a5524c458ee0a0b718f4385,
        type: 3}
      propertyPath: m_LocalPosition.y
      value: 2.010882
      objectReference: {fileID: 0}
    - target: {fileID: 3249013744812420685, guid: 1e5915d42a5524c458ee0a0b718f4385,
        type: 3}
      propertyPath: m_LocalPosition.z
      value: -0.022471286
      objectReference: {fileID: 0}
    - target: {fileID: 3249013744812420685, guid: 1e5915d42a5524c458ee0a0b718f4385,
        type: 3}
      propertyPath: m_LocalRotation.x
      value: 0
      objectReference: {fileID: 0}
    - target: {fileID: 3249013744812420685, guid: 1e5915d42a5524c458ee0a0b718f4385,
        type: 3}
      propertyPath: m_LocalRotation.y
      value: 0
      objectReference: {fileID: 0}
    - target: {fileID: 3249013744812420685, guid: 1e5915d42a5524c458ee0a0b718f4385,
        type: 3}
      propertyPath: m_LocalRotation.z
      value: 0
      objectReference: {fileID: 0}
    - target: {fileID: 3249013744812420685, guid: 1e5915d42a5524c458ee0a0b718f4385,
        type: 3}
      propertyPath: m_LocalRotation.w
      value: 1
      objectReference: {fileID: 0}
    - target: {fileID: 3249013744812420685, guid: 1e5915d42a5524c458ee0a0b718f4385,
        type: 3}
      propertyPath: m_RootOrder
      value: 2
      objectReference: {fileID: 0}
    - target: {fileID: 3249013744812420685, guid: 1e5915d42a5524c458ee0a0b718f4385,
        type: 3}
      propertyPath: m_LocalEulerAnglesHint.x
      value: 0
      objectReference: {fileID: 0}
    - target: {fileID: 3249013744812420685, guid: 1e5915d42a5524c458ee0a0b718f4385,
        type: 3}
      propertyPath: m_LocalEulerAnglesHint.y
      value: 0
      objectReference: {fileID: 0}
    - target: {fileID: 3249013744812420685, guid: 1e5915d42a5524c458ee0a0b718f4385,
        type: 3}
      propertyPath: m_LocalEulerAnglesHint.z
      value: 0
      objectReference: {fileID: 0}
    - target: {fileID: 3249013744812420684, guid: 1e5915d42a5524c458ee0a0b718f4385,
        type: 3}
      propertyPath: player
      value: 
      objectReference: {fileID: 1233732334}
    - target: {fileID: 3249013744812420684, guid: 1e5915d42a5524c458ee0a0b718f4385,
        type: 3}
      propertyPath: target
      value: 
      objectReference: {fileID: 1233732335}
    - target: {fileID: 3249013744812420684, guid: 1e5915d42a5524c458ee0a0b718f4385,
        type: 3}
      propertyPath: MainColor.rgba
      value: 16755972
      objectReference: {fileID: 0}
    m_RemovedComponents: []
  m_SourcePrefab: {fileID: 100100000, guid: 1e5915d42a5524c458ee0a0b718f4385, type: 3}
--- !u!1001 &456424010
PrefabInstance:
  m_ObjectHideFlags: 0
  serializedVersion: 2
  m_Modification:
    m_TransformParent: {fileID: 0}
    m_Modifications:
    - target: {fileID: 2246676268534247110, guid: 41df90256a5eb83438aac6358728efd1,
        type: 3}
      propertyPath: m_Name
      value: BlockingWall (12)
      objectReference: {fileID: 0}
    - target: {fileID: 2246676268534247106, guid: 41df90256a5eb83438aac6358728efd1,
        type: 3}
      propertyPath: m_LocalPosition.x
      value: 8.8
      objectReference: {fileID: 0}
    - target: {fileID: 2246676268534247106, guid: 41df90256a5eb83438aac6358728efd1,
        type: 3}
      propertyPath: m_LocalPosition.y
      value: 3.41
      objectReference: {fileID: 0}
    - target: {fileID: 2246676268534247106, guid: 41df90256a5eb83438aac6358728efd1,
        type: 3}
      propertyPath: m_LocalPosition.z
      value: 0
      objectReference: {fileID: 0}
    - target: {fileID: 2246676268534247106, guid: 41df90256a5eb83438aac6358728efd1,
        type: 3}
      propertyPath: m_LocalRotation.x
      value: 0
      objectReference: {fileID: 0}
    - target: {fileID: 2246676268534247106, guid: 41df90256a5eb83438aac6358728efd1,
        type: 3}
      propertyPath: m_LocalRotation.y
      value: 0
      objectReference: {fileID: 0}
    - target: {fileID: 2246676268534247106, guid: 41df90256a5eb83438aac6358728efd1,
        type: 3}
      propertyPath: m_LocalRotation.z
      value: 0.7071068
      objectReference: {fileID: 0}
    - target: {fileID: 2246676268534247106, guid: 41df90256a5eb83438aac6358728efd1,
        type: 3}
      propertyPath: m_LocalRotation.w
      value: 0.7071068
      objectReference: {fileID: 0}
    - target: {fileID: 2246676268534247106, guid: 41df90256a5eb83438aac6358728efd1,
        type: 3}
      propertyPath: m_RootOrder
      value: 7
      objectReference: {fileID: 0}
    - target: {fileID: 2246676268534247106, guid: 41df90256a5eb83438aac6358728efd1,
        type: 3}
      propertyPath: m_LocalEulerAnglesHint.x
      value: 0
      objectReference: {fileID: 0}
    - target: {fileID: 2246676268534247106, guid: 41df90256a5eb83438aac6358728efd1,
        type: 3}
      propertyPath: m_LocalEulerAnglesHint.y
      value: 0
      objectReference: {fileID: 0}
    - target: {fileID: 2246676268534247106, guid: 41df90256a5eb83438aac6358728efd1,
        type: 3}
      propertyPath: m_LocalEulerAnglesHint.z
      value: 90
      objectReference: {fileID: 0}
    - target: {fileID: 2246676268534247106, guid: 41df90256a5eb83438aac6358728efd1,
        type: 3}
      propertyPath: m_LocalScale.y
      value: 8.075055
      objectReference: {fileID: 0}
    - target: {fileID: 2246676268534247106, guid: 41df90256a5eb83438aac6358728efd1,
        type: 3}
      propertyPath: m_LocalScale.x
      value: 4.0488443
      objectReference: {fileID: 0}
    m_RemovedComponents: []
  m_SourcePrefab: {fileID: 100100000, guid: 41df90256a5eb83438aac6358728efd1, type: 3}
--- !u!1001 &466861325
PrefabInstance:
  m_ObjectHideFlags: 0
  serializedVersion: 2
  m_Modification:
    m_TransformParent: {fileID: 0}
    m_Modifications:
    - target: {fileID: 7933080570195662534, guid: 3d6642c587548db4a85d8f076d5f0f60,
        type: 3}
      propertyPath: m_Name
      value: UncoloredCorner (3)
      objectReference: {fileID: 0}
    - target: {fileID: 4014571219289437333, guid: 3d6642c587548db4a85d8f076d5f0f60,
        type: 3}
      propertyPath: m_LocalPosition.x
      value: 10.75
      objectReference: {fileID: 0}
    - target: {fileID: 4014571219289437333, guid: 3d6642c587548db4a85d8f076d5f0f60,
        type: 3}
      propertyPath: m_LocalPosition.y
      value: 0.13
      objectReference: {fileID: 0}
    - target: {fileID: 4014571219289437333, guid: 3d6642c587548db4a85d8f076d5f0f60,
        type: 3}
      propertyPath: m_LocalPosition.z
      value: 0
      objectReference: {fileID: 0}
    - target: {fileID: 4014571219289437333, guid: 3d6642c587548db4a85d8f076d5f0f60,
        type: 3}
      propertyPath: m_LocalRotation.x
      value: -0
      objectReference: {fileID: 0}
    - target: {fileID: 4014571219289437333, guid: 3d6642c587548db4a85d8f076d5f0f60,
        type: 3}
      propertyPath: m_LocalRotation.y
      value: -0
      objectReference: {fileID: 0}
    - target: {fileID: 4014571219289437333, guid: 3d6642c587548db4a85d8f076d5f0f60,
        type: 3}
      propertyPath: m_LocalRotation.z
      value: 0.7071066
      objectReference: {fileID: 0}
    - target: {fileID: 4014571219289437333, guid: 3d6642c587548db4a85d8f076d5f0f60,
        type: 3}
      propertyPath: m_LocalRotation.w
      value: -0.70710707
      objectReference: {fileID: 0}
    - target: {fileID: 4014571219289437333, guid: 3d6642c587548db4a85d8f076d5f0f60,
        type: 3}
      propertyPath: m_RootOrder
      value: 15
      objectReference: {fileID: 0}
    - target: {fileID: 4014571219289437333, guid: 3d6642c587548db4a85d8f076d5f0f60,
        type: 3}
      propertyPath: m_LocalEulerAnglesHint.x
      value: 0
      objectReference: {fileID: 0}
    - target: {fileID: 4014571219289437333, guid: 3d6642c587548db4a85d8f076d5f0f60,
        type: 3}
      propertyPath: m_LocalEulerAnglesHint.y
      value: 0
      objectReference: {fileID: 0}
    - target: {fileID: 4014571219289437333, guid: 3d6642c587548db4a85d8f076d5f0f60,
        type: 3}
      propertyPath: m_LocalEulerAnglesHint.z
      value: 270
      objectReference: {fileID: 0}
    m_RemovedComponents: []
  m_SourcePrefab: {fileID: 100100000, guid: 3d6642c587548db4a85d8f076d5f0f60, type: 3}
--- !u!1001 &713658179
PrefabInstance:
  m_ObjectHideFlags: 0
  serializedVersion: 2
  m_Modification:
    m_TransformParent: {fileID: 0}
    m_Modifications:
    - target: {fileID: 2246676268534247110, guid: 41df90256a5eb83438aac6358728efd1,
        type: 3}
      propertyPath: m_Name
      value: BlockingWall (13)
      objectReference: {fileID: 0}
    - target: {fileID: 2246676268534247106, guid: 41df90256a5eb83438aac6358728efd1,
        type: 3}
      propertyPath: m_LocalPosition.x
      value: -0.81
      objectReference: {fileID: 0}
    - target: {fileID: 2246676268534247106, guid: 41df90256a5eb83438aac6358728efd1,
        type: 3}
      propertyPath: m_LocalPosition.y
      value: -12.41
      objectReference: {fileID: 0}
    - target: {fileID: 2246676268534247106, guid: 41df90256a5eb83438aac6358728efd1,
        type: 3}
      propertyPath: m_LocalPosition.z
      value: 0
      objectReference: {fileID: 0}
    - target: {fileID: 2246676268534247106, guid: 41df90256a5eb83438aac6358728efd1,
        type: 3}
      propertyPath: m_LocalRotation.x
      value: 0
      objectReference: {fileID: 0}
    - target: {fileID: 2246676268534247106, guid: 41df90256a5eb83438aac6358728efd1,
        type: 3}
      propertyPath: m_LocalRotation.y
      value: 0
      objectReference: {fileID: 0}
    - target: {fileID: 2246676268534247106, guid: 41df90256a5eb83438aac6358728efd1,
        type: 3}
      propertyPath: m_LocalRotation.z
      value: 0.7071068
      objectReference: {fileID: 0}
    - target: {fileID: 2246676268534247106, guid: 41df90256a5eb83438aac6358728efd1,
        type: 3}
      propertyPath: m_LocalRotation.w
      value: 0.7071068
      objectReference: {fileID: 0}
    - target: {fileID: 2246676268534247106, guid: 41df90256a5eb83438aac6358728efd1,
        type: 3}
      propertyPath: m_RootOrder
      value: 10
      objectReference: {fileID: 0}
    - target: {fileID: 2246676268534247106, guid: 41df90256a5eb83438aac6358728efd1,
        type: 3}
      propertyPath: m_LocalEulerAnglesHint.x
      value: 0
      objectReference: {fileID: 0}
    - target: {fileID: 2246676268534247106, guid: 41df90256a5eb83438aac6358728efd1,
        type: 3}
      propertyPath: m_LocalEulerAnglesHint.y
      value: 0
      objectReference: {fileID: 0}
    - target: {fileID: 2246676268534247106, guid: 41df90256a5eb83438aac6358728efd1,
        type: 3}
      propertyPath: m_LocalEulerAnglesHint.z
      value: 90
      objectReference: {fileID: 0}
    - target: {fileID: 2246676268534247106, guid: 41df90256a5eb83438aac6358728efd1,
        type: 3}
      propertyPath: m_LocalScale.y
      value: 31.92481
      objectReference: {fileID: 0}
    - target: {fileID: 2246676268534247106, guid: 41df90256a5eb83438aac6358728efd1,
        type: 3}
      propertyPath: m_LocalScale.x
      value: 12.419767
      objectReference: {fileID: 0}
    m_RemovedComponents: []
  m_SourcePrefab: {fileID: 100100000, guid: 41df90256a5eb83438aac6358728efd1, type: 3}
--- !u!1001 &811842586
PrefabInstance:
  m_ObjectHideFlags: 0
  serializedVersion: 2
  m_Modification:
    m_TransformParent: {fileID: 0}
    m_Modifications:
    - target: {fileID: 7933080570195662534, guid: 3d6642c587548db4a85d8f076d5f0f60,
        type: 3}
      propertyPath: m_Name
      value: UncoloredCorner (1)
      objectReference: {fileID: 0}
    - target: {fileID: 4014571219289437333, guid: 3d6642c587548db4a85d8f076d5f0f60,
        type: 3}
      propertyPath: m_LocalPosition.x
      value: 3.51
      objectReference: {fileID: 0}
    - target: {fileID: 4014571219289437333, guid: 3d6642c587548db4a85d8f076d5f0f60,
        type: 3}
      propertyPath: m_LocalPosition.y
      value: -4.93
      objectReference: {fileID: 0}
    - target: {fileID: 4014571219289437333, guid: 3d6642c587548db4a85d8f076d5f0f60,
        type: 3}
      propertyPath: m_LocalPosition.z
      value: 0
      objectReference: {fileID: 0}
    - target: {fileID: 4014571219289437333, guid: 3d6642c587548db4a85d8f076d5f0f60,
        type: 3}
      propertyPath: m_LocalRotation.x
      value: -0
      objectReference: {fileID: 0}
    - target: {fileID: 4014571219289437333, guid: 3d6642c587548db4a85d8f076d5f0f60,
        type: 3}
      propertyPath: m_LocalRotation.y
      value: -0
      objectReference: {fileID: 0}
    - target: {fileID: 4014571219289437333, guid: 3d6642c587548db4a85d8f076d5f0f60,
        type: 3}
      propertyPath: m_LocalRotation.z
      value: 1
      objectReference: {fileID: 0}
    - target: {fileID: 4014571219289437333, guid: 3d6642c587548db4a85d8f076d5f0f60,
        type: 3}
      propertyPath: m_LocalRotation.w
      value: -0.00000078976143
      objectReference: {fileID: 0}
    - target: {fileID: 4014571219289437333, guid: 3d6642c587548db4a85d8f076d5f0f60,
        type: 3}
      propertyPath: m_RootOrder
      value: 13
      objectReference: {fileID: 0}
    - target: {fileID: 4014571219289437333, guid: 3d6642c587548db4a85d8f076d5f0f60,
        type: 3}
      propertyPath: m_LocalEulerAnglesHint.x
      value: 0
      objectReference: {fileID: 0}
    - target: {fileID: 4014571219289437333, guid: 3d6642c587548db4a85d8f076d5f0f60,
        type: 3}
      propertyPath: m_LocalEulerAnglesHint.y
      value: 0
      objectReference: {fileID: 0}
    - target: {fileID: 4014571219289437333, guid: 3d6642c587548db4a85d8f076d5f0f60,
        type: 3}
      propertyPath: m_LocalEulerAnglesHint.z
      value: 179.99998
      objectReference: {fileID: 0}
    m_RemovedComponents: []
  m_SourcePrefab: {fileID: 100100000, guid: 3d6642c587548db4a85d8f076d5f0f60, type: 3}
--- !u!1001 &860411827
PrefabInstance:
  m_ObjectHideFlags: 0
  serializedVersion: 2
  m_Modification:
    m_TransformParent: {fileID: 0}
    m_Modifications:
    - target: {fileID: 7933080570195662534, guid: 3d6642c587548db4a85d8f076d5f0f60,
        type: 3}
      propertyPath: m_Name
      value: UncoloredCorner (6)
      objectReference: {fileID: 0}
    - target: {fileID: 4014571219289437333, guid: 3d6642c587548db4a85d8f076d5f0f60,
        type: 3}
      propertyPath: m_LocalPosition.x
      value: -12.33
      objectReference: {fileID: 0}
    - target: {fileID: 4014571219289437333, guid: 3d6642c587548db4a85d8f076d5f0f60,
        type: 3}
      propertyPath: m_LocalPosition.y
      value: -2.35
      objectReference: {fileID: 0}
    - target: {fileID: 4014571219289437333, guid: 3d6642c587548db4a85d8f076d5f0f60,
        type: 3}
      propertyPath: m_LocalPosition.z
      value: 0
      objectReference: {fileID: 0}
    - target: {fileID: 4014571219289437333, guid: 3d6642c587548db4a85d8f076d5f0f60,
        type: 3}
      propertyPath: m_LocalRotation.x
      value: -0
      objectReference: {fileID: 0}
    - target: {fileID: 4014571219289437333, guid: 3d6642c587548db4a85d8f076d5f0f60,
        type: 3}
      propertyPath: m_LocalRotation.y
      value: -0
      objectReference: {fileID: 0}
    - target: {fileID: 4014571219289437333, guid: 3d6642c587548db4a85d8f076d5f0f60,
        type: 3}
      propertyPath: m_LocalRotation.z
      value: -0.70710707
      objectReference: {fileID: 0}
    - target: {fileID: 4014571219289437333, guid: 3d6642c587548db4a85d8f076d5f0f60,
        type: 3}
      propertyPath: m_LocalRotation.w
      value: -0.7071066
      objectReference: {fileID: 0}
    - target: {fileID: 4014571219289437333, guid: 3d6642c587548db4a85d8f076d5f0f60,
        type: 3}
      propertyPath: m_RootOrder
      value: 18
      objectReference: {fileID: 0}
    - target: {fileID: 4014571219289437333, guid: 3d6642c587548db4a85d8f076d5f0f60,
        type: 3}
      propertyPath: m_LocalEulerAnglesHint.x
      value: 0
      objectReference: {fileID: 0}
    - target: {fileID: 4014571219289437333, guid: 3d6642c587548db4a85d8f076d5f0f60,
        type: 3}
      propertyPath: m_LocalEulerAnglesHint.y
      value: 0
      objectReference: {fileID: 0}
    - target: {fileID: 4014571219289437333, guid: 3d6642c587548db4a85d8f076d5f0f60,
        type: 3}
      propertyPath: m_LocalEulerAnglesHint.z
      value: 450
      objectReference: {fileID: 0}
    m_RemovedComponents: []
  m_SourcePrefab: {fileID: 100100000, guid: 3d6642c587548db4a85d8f076d5f0f60, type: 3}
--- !u!1001 &948858174
PrefabInstance:
  m_ObjectHideFlags: 0
  serializedVersion: 2
  m_Modification:
    m_TransformParent: {fileID: 0}
    m_Modifications:
    - target: {fileID: 2246676268534247110, guid: 41df90256a5eb83438aac6358728efd1,
        type: 3}
      propertyPath: m_Name
      value: BlockingWall (10)
      objectReference: {fileID: 0}
    - target: {fileID: 2246676268534247106, guid: 41df90256a5eb83438aac6358728efd1,
        type: 3}
      propertyPath: m_LocalPosition.x
      value: -0.811
      objectReference: {fileID: 0}
    - target: {fileID: 2246676268534247106, guid: 41df90256a5eb83438aac6358728efd1,
        type: 3}
      propertyPath: m_LocalPosition.y
      value: 9.23
      objectReference: {fileID: 0}
    - target: {fileID: 2246676268534247106, guid: 41df90256a5eb83438aac6358728efd1,
        type: 3}
      propertyPath: m_LocalPosition.z
      value: 0
      objectReference: {fileID: 0}
    - target: {fileID: 2246676268534247106, guid: 41df90256a5eb83438aac6358728efd1,
        type: 3}
      propertyPath: m_LocalRotation.x
      value: 0
      objectReference: {fileID: 0}
    - target: {fileID: 2246676268534247106, guid: 41df90256a5eb83438aac6358728efd1,
        type: 3}
      propertyPath: m_LocalRotation.y
      value: 0
      objectReference: {fileID: 0}
    - target: {fileID: 2246676268534247106, guid: 41df90256a5eb83438aac6358728efd1,
        type: 3}
      propertyPath: m_LocalRotation.z
      value: 0.7071068
      objectReference: {fileID: 0}
    - target: {fileID: 2246676268534247106, guid: 41df90256a5eb83438aac6358728efd1,
        type: 3}
      propertyPath: m_LocalRotation.w
      value: 0.7071068
      objectReference: {fileID: 0}
    - target: {fileID: 2246676268534247106, guid: 41df90256a5eb83438aac6358728efd1,
        type: 3}
      propertyPath: m_RootOrder
      value: 5
      objectReference: {fileID: 0}
    - target: {fileID: 2246676268534247106, guid: 41df90256a5eb83438aac6358728efd1,
        type: 3}
      propertyPath: m_LocalEulerAnglesHint.x
      value: 0
      objectReference: {fileID: 0}
    - target: {fileID: 2246676268534247106, guid: 41df90256a5eb83438aac6358728efd1,
        type: 3}
      propertyPath: m_LocalEulerAnglesHint.y
      value: 0
      objectReference: {fileID: 0}
    - target: {fileID: 2246676268534247106, guid: 41df90256a5eb83438aac6358728efd1,
        type: 3}
      propertyPath: m_LocalEulerAnglesHint.z
      value: 90
      objectReference: {fileID: 0}
    - target: {fileID: 2246676268534247106, guid: 41df90256a5eb83438aac6358728efd1,
        type: 3}
      propertyPath: m_LocalScale.y
      value: 31.924738
      objectReference: {fileID: 0}
    - target: {fileID: 2246676268534247106, guid: 41df90256a5eb83438aac6358728efd1,
        type: 3}
      propertyPath: m_LocalScale.x
      value: 11.511799
      objectReference: {fileID: 0}
    m_RemovedComponents: []
  m_SourcePrefab: {fileID: 100100000, guid: 41df90256a5eb83438aac6358728efd1, type: 3}
--- !u!1001 &1154334187
PrefabInstance:
  m_ObjectHideFlags: 0
  serializedVersion: 2
  m_Modification:
    m_TransformParent: {fileID: 0}
    m_Modifications:
    - target: {fileID: 7933080570195662534, guid: 3d6642c587548db4a85d8f076d5f0f60,
        type: 3}
      propertyPath: m_Name
      value: UncoloredCorner
      objectReference: {fileID: 0}
    - target: {fileID: 4014571219289437333, guid: 3d6642c587548db4a85d8f076d5f0f60,
        type: 3}
      propertyPath: m_LocalPosition.x
      value: -4.79
      objectReference: {fileID: 0}
    - target: {fileID: 4014571219289437333, guid: 3d6642c587548db4a85d8f076d5f0f60,
        type: 3}
      propertyPath: m_LocalPosition.y
      value: -4.93
      objectReference: {fileID: 0}
    - target: {fileID: 4014571219289437333, guid: 3d6642c587548db4a85d8f076d5f0f60,
        type: 3}
      propertyPath: m_LocalPosition.z
      value: 0
      objectReference: {fileID: 0}
    - target: {fileID: 4014571219289437333, guid: 3d6642c587548db4a85d8f076d5f0f60,
        type: 3}
      propertyPath: m_LocalRotation.x
      value: -0
      objectReference: {fileID: 0}
    - target: {fileID: 4014571219289437333, guid: 3d6642c587548db4a85d8f076d5f0f60,
        type: 3}
      propertyPath: m_LocalRotation.y
      value: -0
      objectReference: {fileID: 0}
    - target: {fileID: 4014571219289437333, guid: 3d6642c587548db4a85d8f076d5f0f60,
        type: 3}
      propertyPath: m_LocalRotation.z
      value: 0.70710707
      objectReference: {fileID: 0}
    - target: {fileID: 4014571219289437333, guid: 3d6642c587548db4a85d8f076d5f0f60,
        type: 3}
      propertyPath: m_LocalRotation.w
      value: 0.70710653
      objectReference: {fileID: 0}
    - target: {fileID: 4014571219289437333, guid: 3d6642c587548db4a85d8f076d5f0f60,
        type: 3}
      propertyPath: m_RootOrder
      value: 1
      objectReference: {fileID: 0}
    - target: {fileID: 4014571219289437333, guid: 3d6642c587548db4a85d8f076d5f0f60,
        type: 3}
      propertyPath: m_LocalEulerAnglesHint.x
      value: 0
      objectReference: {fileID: 0}
    - target: {fileID: 4014571219289437333, guid: 3d6642c587548db4a85d8f076d5f0f60,
        type: 3}
      propertyPath: m_LocalEulerAnglesHint.y
      value: 0
      objectReference: {fileID: 0}
    - target: {fileID: 4014571219289437333, guid: 3d6642c587548db4a85d8f076d5f0f60,
        type: 3}
      propertyPath: m_LocalEulerAnglesHint.z
      value: 90.00001
      objectReference: {fileID: 0}
    m_RemovedComponents: []
  m_SourcePrefab: {fileID: 100100000, guid: 3d6642c587548db4a85d8f076d5f0f60, type: 3}
--- !u!1001 &1166227825
PrefabInstance:
  m_ObjectHideFlags: 0
  serializedVersion: 2
  m_Modification:
    m_TransformParent: {fileID: 0}
    m_Modifications:
    - target: {fileID: 2246676268534247110, guid: 41df90256a5eb83438aac6358728efd1,
        type: 3}
      propertyPath: m_Name
      value: BlockingWall (8)
      objectReference: {fileID: 0}
    - target: {fileID: 2246676268534247106, guid: 41df90256a5eb83438aac6358728efd1,
        type: 3}
      propertyPath: m_LocalPosition.x
      value: -19.082
      objectReference: {fileID: 0}
    - target: {fileID: 2246676268534247106, guid: 41df90256a5eb83438aac6358728efd1,
        type: 3}
      propertyPath: m_LocalPosition.y
      value: -1.813
      objectReference: {fileID: 0}
    - target: {fileID: 2246676268534247106, guid: 41df90256a5eb83438aac6358728efd1,
        type: 3}
      propertyPath: m_LocalPosition.z
      value: 0
      objectReference: {fileID: 0}
    - target: {fileID: 2246676268534247106, guid: 41df90256a5eb83438aac6358728efd1,
        type: 3}
      propertyPath: m_LocalRotation.x
      value: 0
      objectReference: {fileID: 0}
    - target: {fileID: 2246676268534247106, guid: 41df90256a5eb83438aac6358728efd1,
        type: 3}
      propertyPath: m_LocalRotation.y
      value: 0
      objectReference: {fileID: 0}
    - target: {fileID: 2246676268534247106, guid: 41df90256a5eb83438aac6358728efd1,
        type: 3}
      propertyPath: m_LocalRotation.z
      value: 0
      objectReference: {fileID: 0}
    - target: {fileID: 2246676268534247106, guid: 41df90256a5eb83438aac6358728efd1,
        type: 3}
      propertyPath: m_LocalRotation.w
      value: 1
      objectReference: {fileID: 0}
    - target: {fileID: 2246676268534247106, guid: 41df90256a5eb83438aac6358728efd1,
        type: 3}
      propertyPath: m_RootOrder
      value: 0
      objectReference: {fileID: 0}
    - target: {fileID: 2246676268534247106, guid: 41df90256a5eb83438aac6358728efd1,
        type: 3}
      propertyPath: m_LocalEulerAnglesHint.x
      value: 0
      objectReference: {fileID: 0}
    - target: {fileID: 2246676268534247106, guid: 41df90256a5eb83438aac6358728efd1,
        type: 3}
      propertyPath: m_LocalEulerAnglesHint.y
      value: 0
      objectReference: {fileID: 0}
    - target: {fileID: 2246676268534247106, guid: 41df90256a5eb83438aac6358728efd1,
        type: 3}
      propertyPath: m_LocalEulerAnglesHint.z
      value: 0
      objectReference: {fileID: 0}
    - target: {fileID: 2246676268534247106, guid: 41df90256a5eb83438aac6358728efd1,
        type: 3}
      propertyPath: m_LocalScale.y
      value: 33.623173
      objectReference: {fileID: 0}
    - target: {fileID: 2246676268534247106, guid: 41df90256a5eb83438aac6358728efd1,
        type: 3}
      propertyPath: m_LocalScale.x
      value: 11.053572
      objectReference: {fileID: 0}
    m_RemovedComponents: []
  m_SourcePrefab: {fileID: 100100000, guid: 41df90256a5eb83438aac6358728efd1, type: 3}
--- !u!1001 &1233732333
PrefabInstance:
  m_ObjectHideFlags: 0
  serializedVersion: 2
  m_Modification:
    m_TransformParent: {fileID: 0}
    m_Modifications:
    - target: {fileID: 6273507619849182112, guid: 006a17d4514f88c43b8f89e20fd01f93,
        type: 3}
      propertyPath: m_Name
      value: Level (1)
      objectReference: {fileID: 0}
    - target: {fileID: 6273507619849182119, guid: 006a17d4514f88c43b8f89e20fd01f93,
        type: 3}
      propertyPath: m_LocalPosition.x
      value: 11.503662
      objectReference: {fileID: 0}
    - target: {fileID: 6273507619849182119, guid: 006a17d4514f88c43b8f89e20fd01f93,
        type: 3}
      propertyPath: m_LocalPosition.y
      value: 4.0576344
      objectReference: {fileID: 0}
    - target: {fileID: 6273507619849182119, guid: 006a17d4514f88c43b8f89e20fd01f93,
        type: 3}
      propertyPath: m_LocalPosition.z
      value: -0.14713542
      objectReference: {fileID: 0}
    - target: {fileID: 6273507619849182119, guid: 006a17d4514f88c43b8f89e20fd01f93,
        type: 3}
      propertyPath: m_LocalRotation.x
      value: 0
      objectReference: {fileID: 0}
    - target: {fileID: 6273507619849182119, guid: 006a17d4514f88c43b8f89e20fd01f93,
        type: 3}
      propertyPath: m_LocalRotation.y
      value: 0
      objectReference: {fileID: 0}
    - target: {fileID: 6273507619849182119, guid: 006a17d4514f88c43b8f89e20fd01f93,
        type: 3}
      propertyPath: m_LocalRotation.z
      value: 0
      objectReference: {fileID: 0}
    - target: {fileID: 6273507619849182119, guid: 006a17d4514f88c43b8f89e20fd01f93,
        type: 3}
      propertyPath: m_LocalRotation.w
      value: 1
      objectReference: {fileID: 0}
    - target: {fileID: 6273507619849182119, guid: 006a17d4514f88c43b8f89e20fd01f93,
        type: 3}
      propertyPath: m_RootOrder
      value: 9
      objectReference: {fileID: 0}
    - target: {fileID: 6273507619849182119, guid: 006a17d4514f88c43b8f89e20fd01f93,
        type: 3}
      propertyPath: m_LocalEulerAnglesHint.x
      value: 0
      objectReference: {fileID: 0}
    - target: {fileID: 6273507619849182119, guid: 006a17d4514f88c43b8f89e20fd01f93,
        type: 3}
      propertyPath: m_LocalEulerAnglesHint.y
      value: 0
      objectReference: {fileID: 0}
    - target: {fileID: 6273507619849182119, guid: 006a17d4514f88c43b8f89e20fd01f93,
        type: 3}
      propertyPath: m_LocalEulerAnglesHint.z
      value: 0
      objectReference: {fileID: 0}
    - target: {fileID: 7544558296223026120, guid: 006a17d4514f88c43b8f89e20fd01f93,
        type: 3}
      propertyPath: m_LocalPosition.z
      value: 0
      objectReference: {fileID: 0}
    - target: {fileID: 4194004156104344060, guid: 006a17d4514f88c43b8f89e20fd01f93,
        type: 3}
      propertyPath: m_LocalPosition.x
      value: -22.64
      objectReference: {fileID: 0}
    - target: {fileID: 4194004156104344060, guid: 006a17d4514f88c43b8f89e20fd01f93,
        type: 3}
      propertyPath: m_LocalPosition.y
      value: -5.16
      objectReference: {fileID: 0}
    - target: {fileID: 6322928365120658058, guid: 006a17d4514f88c43b8f89e20fd01f93,
        type: 3}
      propertyPath: m_LocalPosition.x
      value: -1.66
      objectReference: {fileID: 0}
    - target: {fileID: 6322928365120658058, guid: 006a17d4514f88c43b8f89e20fd01f93,
        type: 3}
      propertyPath: m_LocalPosition.y
      value: -5.19
      objectReference: {fileID: 0}
    - target: {fileID: 4194004156104344061, guid: 006a17d4514f88c43b8f89e20fd01f93,
        type: 3}
      propertyPath: NextScene
      value: 4
      objectReference: {fileID: 0}
    m_RemovedComponents: []
  m_SourcePrefab: {fileID: 100100000, guid: 006a17d4514f88c43b8f89e20fd01f93, type: 3}
--- !u!1 &1233732334 stripped
GameObject:
  m_CorrespondingSourceObject: {fileID: 2489328972499189785, guid: 006a17d4514f88c43b8f89e20fd01f93,
    type: 3}
  m_PrefabInstance: {fileID: 1233732333}
  m_PrefabAsset: {fileID: 0}
--- !u!1 &1233732335 stripped
GameObject:
  m_CorrespondingSourceObject: {fileID: 4194004156104344063, guid: 006a17d4514f88c43b8f89e20fd01f93,
    type: 3}
  m_PrefabInstance: {fileID: 1233732333}
  m_PrefabAsset: {fileID: 0}
--- !u!1001 &1363808942
PrefabInstance:
  m_ObjectHideFlags: 0
  serializedVersion: 2
  m_Modification:
    m_TransformParent: {fileID: 0}
    m_Modifications:
    - target: {fileID: 7933080570195662534, guid: 3d6642c587548db4a85d8f076d5f0f60,
        type: 3}
      propertyPath: m_Name
      value: UncoloredCorner (4)
      objectReference: {fileID: 0}
    - target: {fileID: 4014571219289437333, guid: 3d6642c587548db4a85d8f076d5f0f60,
        type: 3}
      propertyPath: m_LocalPosition.x
      value: 3.82
      objectReference: {fileID: 0}
    - target: {fileID: 4014571219289437333, guid: 3d6642c587548db4a85d8f076d5f0f60,
        type: 3}
      propertyPath: m_LocalPosition.y
      value: 2.5
      objectReference: {fileID: 0}
    - target: {fileID: 4014571219289437333, guid: 3d6642c587548db4a85d8f076d5f0f60,
        type: 3}
      propertyPath: m_LocalPosition.z
      value: 0
      objectReference: {fileID: 0}
    - target: {fileID: 4014571219289437333, guid: 3d6642c587548db4a85d8f076d5f0f60,
        type: 3}
      propertyPath: m_LocalRotation.x
      value: -0
      objectReference: {fileID: 0}
    - target: {fileID: 4014571219289437333, guid: 3d6642c587548db4a85d8f076d5f0f60,
        type: 3}
      propertyPath: m_LocalRotation.y
      value: -0
      objectReference: {fileID: 0}
    - target: {fileID: 4014571219289437333, guid: 3d6642c587548db4a85d8f076d5f0f60,
        type: 3}
      propertyPath: m_LocalRotation.z
      value: 0.7071066
      objectReference: {fileID: 0}
    - target: {fileID: 4014571219289437333, guid: 3d6642c587548db4a85d8f076d5f0f60,
        type: 3}
      propertyPath: m_LocalRotation.w
      value: -0.70710707
      objectReference: {fileID: 0}
    - target: {fileID: 4014571219289437333, guid: 3d6642c587548db4a85d8f076d5f0f60,
        type: 3}
      propertyPath: m_RootOrder
      value: 16
      objectReference: {fileID: 0}
    - target: {fileID: 4014571219289437333, guid: 3d6642c587548db4a85d8f076d5f0f60,
        type: 3}
      propertyPath: m_LocalEulerAnglesHint.x
      value: 0
      objectReference: {fileID: 0}
    - target: {fileID: 4014571219289437333, guid: 3d6642c587548db4a85d8f076d5f0f60,
        type: 3}
      propertyPath: m_LocalEulerAnglesHint.y
      value: 0
      objectReference: {fileID: 0}
    - target: {fileID: 4014571219289437333, guid: 3d6642c587548db4a85d8f076d5f0f60,
        type: 3}
      propertyPath: m_LocalEulerAnglesHint.z
      value: 270
      objectReference: {fileID: 0}
    - target: {fileID: 4014571219289437333, guid: 3d6642c587548db4a85d8f076d5f0f60,
        type: 3}
      propertyPath: m_LocalScale.x
      value: 0.38513473
      objectReference: {fileID: 0}
    - target: {fileID: 4014571219289437333, guid: 3d6642c587548db4a85d8f076d5f0f60,
        type: 3}
      propertyPath: m_LocalScale.y
      value: 0.38513473
      objectReference: {fileID: 0}
    - target: {fileID: 4014571219289437333, guid: 3d6642c587548db4a85d8f076d5f0f60,
        type: 3}
      propertyPath: m_LocalScale.z
      value: 0.77026945
      objectReference: {fileID: 0}
    m_RemovedComponents: []
  m_SourcePrefab: {fileID: 100100000, guid: 3d6642c587548db4a85d8f076d5f0f60, type: 3}
--- !u!1001 &1391122155
PrefabInstance:
  m_ObjectHideFlags: 0
  serializedVersion: 2
  m_Modification:
    m_TransformParent: {fileID: 0}
    m_Modifications:
    - target: {fileID: 7933080570195662534, guid: 3d6642c587548db4a85d8f076d5f0f60,
        type: 3}
      propertyPath: m_Name
      value: UncoloredCorner (7)
      objectReference: {fileID: 0}
    - target: {fileID: 4014571219289437333, guid: 3d6642c587548db4a85d8f076d5f0f60,
        type: 3}
      propertyPath: m_LocalPosition.x
      value: -12.33
      objectReference: {fileID: 0}
    - target: {fileID: 4014571219289437333, guid: 3d6642c587548db4a85d8f076d5f0f60,
        type: 3}
      propertyPath: m_LocalPosition.y
      value: 0.13
      objectReference: {fileID: 0}
    - target: {fileID: 4014571219289437333, guid: 3d6642c587548db4a85d8f076d5f0f60,
        type: 3}
      propertyPath: m_LocalPosition.z
      value: 0
      objectReference: {fileID: 0}
    - target: {fileID: 4014571219289437333, guid: 3d6642c587548db4a85d8f076d5f0f60,
        type: 3}
      propertyPath: m_LocalRotation.x
      value: -0
      objectReference: {fileID: 0}
    - target: {fileID: 4014571219289437333, guid: 3d6642c587548db4a85d8f076d5f0f60,
        type: 3}
      propertyPath: m_LocalRotation.y
      value: -0
      objectReference: {fileID: 0}
    - target: {fileID: 4014571219289437333, guid: 3d6642c587548db4a85d8f076d5f0f60,
        type: 3}
      propertyPath: m_LocalRotation.z
      value: -0.0000000745058
      objectReference: {fileID: 0}
    - target: {fileID: 4014571219289437333, guid: 3d6642c587548db4a85d8f076d5f0f60,
        type: 3}
      propertyPath: m_LocalRotation.w
      value: -1
      objectReference: {fileID: 0}
    - target: {fileID: 4014571219289437333, guid: 3d6642c587548db4a85d8f076d5f0f60,
        type: 3}
      propertyPath: m_RootOrder
      value: 19
      objectReference: {fileID: 0}
    - target: {fileID: 4014571219289437333, guid: 3d6642c587548db4a85d8f076d5f0f60,
        type: 3}
      propertyPath: m_LocalEulerAnglesHint.x
      value: 0
      objectReference: {fileID: 0}
    - target: {fileID: 4014571219289437333, guid: 3d6642c587548db4a85d8f076d5f0f60,
        type: 3}
      propertyPath: m_LocalEulerAnglesHint.y
      value: 0
      objectReference: {fileID: 0}
    - target: {fileID: 4014571219289437333, guid: 3d6642c587548db4a85d8f076d5f0f60,
        type: 3}
      propertyPath: m_LocalEulerAnglesHint.z
      value: 360
      objectReference: {fileID: 0}
    m_RemovedComponents: []
  m_SourcePrefab: {fileID: 100100000, guid: 3d6642c587548db4a85d8f076d5f0f60, type: 3}
--- !u!1001 &1455678345
PrefabInstance:
  m_ObjectHideFlags: 0
  serializedVersion: 2
  m_Modification:
    m_TransformParent: {fileID: 0}
    m_Modifications:
    - target: {fileID: 2246676268534247110, guid: 41df90256a5eb83438aac6358728efd1,
        type: 3}
      propertyPath: m_Name
      value: BlockingWall (11)
      objectReference: {fileID: 0}
    - target: {fileID: 2246676268534247106, guid: 41df90256a5eb83438aac6358728efd1,
        type: 3}
      propertyPath: m_LocalPosition.x
      value: -10.032
      objectReference: {fileID: 0}
    - target: {fileID: 2246676268534247106, guid: 41df90256a5eb83438aac6358728efd1,
        type: 3}
      propertyPath: m_LocalPosition.y
      value: -5.628
      objectReference: {fileID: 0}
    - target: {fileID: 2246676268534247106, guid: 41df90256a5eb83438aac6358728efd1,
        type: 3}
      propertyPath: m_LocalPosition.z
      value: 0
      objectReference: {fileID: 0}
    - target: {fileID: 2246676268534247106, guid: 41df90256a5eb83438aac6358728efd1,
        type: 3}
      propertyPath: m_LocalRotation.x
      value: 0
      objectReference: {fileID: 0}
    - target: {fileID: 2246676268534247106, guid: 41df90256a5eb83438aac6358728efd1,
        type: 3}
      propertyPath: m_LocalRotation.y
      value: 0
      objectReference: {fileID: 0}
    - target: {fileID: 2246676268534247106, guid: 41df90256a5eb83438aac6358728efd1,
        type: 3}
      propertyPath: m_LocalRotation.z
      value: 0.7071068
      objectReference: {fileID: 0}
    - target: {fileID: 2246676268534247106, guid: 41df90256a5eb83438aac6358728efd1,
        type: 3}
      propertyPath: m_LocalRotation.w
      value: 0.7071068
      objectReference: {fileID: 0}
    - target: {fileID: 2246676268534247106, guid: 41df90256a5eb83438aac6358728efd1,
        type: 3}
      propertyPath: m_RootOrder
      value: 6
      objectReference: {fileID: 0}
    - target: {fileID: 2246676268534247106, guid: 41df90256a5eb83438aac6358728efd1,
        type: 3}
      propertyPath: m_LocalEulerAnglesHint.x
      value: 0
      objectReference: {fileID: 0}
    - target: {fileID: 2246676268534247106, guid: 41df90256a5eb83438aac6358728efd1,
        type: 3}
      propertyPath: m_LocalEulerAnglesHint.y
      value: 0
      objectReference: {fileID: 0}
    - target: {fileID: 2246676268534247106, guid: 41df90256a5eb83438aac6358728efd1,
        type: 3}
      propertyPath: m_LocalEulerAnglesHint.z
      value: 90
      objectReference: {fileID: 0}
    - target: {fileID: 2246676268534247106, guid: 41df90256a5eb83438aac6358728efd1,
        type: 3}
      propertyPath: m_LocalScale.y
      value: 7.970581
      objectReference: {fileID: 0}
    - target: {fileID: 2246676268534247106, guid: 41df90256a5eb83438aac6358728efd1,
        type: 3}
      propertyPath: m_LocalScale.x
      value: 4.0488443
      objectReference: {fileID: 0}
    m_RemovedComponents: []
  m_SourcePrefab: {fileID: 100100000, guid: 41df90256a5eb83438aac6358728efd1, type: 3}
--- !u!1001 &1503677788
PrefabInstance:
  m_ObjectHideFlags: 0
  serializedVersion: 2
  m_Modification:
    m_TransformParent: {fileID: 0}
    m_Modifications:
    - target: {fileID: 2246676268534247110, guid: 41df90256a5eb83438aac6358728efd1,
        type: 3}
      propertyPath: m_Name
      value: BlockingWall (9)
      objectReference: {fileID: 0}
    - target: {fileID: 2246676268534247106, guid: 41df90256a5eb83438aac6358728efd1,
        type: 3}
      propertyPath: m_LocalPosition.x
      value: 17.466
      objectReference: {fileID: 0}
    - target: {fileID: 2246676268534247106, guid: 41df90256a5eb83438aac6358728efd1,
        type: 3}
      propertyPath: m_LocalPosition.y
      value: -1.8089
      objectReference: {fileID: 0}
    - target: {fileID: 2246676268534247106, guid: 41df90256a5eb83438aac6358728efd1,
        type: 3}
      propertyPath: m_LocalPosition.z
      value: 0
      objectReference: {fileID: 0}
    - target: {fileID: 2246676268534247106, guid: 41df90256a5eb83438aac6358728efd1,
        type: 3}
      propertyPath: m_LocalRotation.x
      value: 0
      objectReference: {fileID: 0}
    - target: {fileID: 2246676268534247106, guid: 41df90256a5eb83438aac6358728efd1,
        type: 3}
      propertyPath: m_LocalRotation.y
      value: 0
      objectReference: {fileID: 0}
    - target: {fileID: 2246676268534247106, guid: 41df90256a5eb83438aac6358728efd1,
        type: 3}
      propertyPath: m_LocalRotation.z
      value: 0
      objectReference: {fileID: 0}
    - target: {fileID: 2246676268534247106, guid: 41df90256a5eb83438aac6358728efd1,
        type: 3}
      propertyPath: m_LocalRotation.w
      value: 1
      objectReference: {fileID: 0}
    - target: {fileID: 2246676268534247106, guid: 41df90256a5eb83438aac6358728efd1,
        type: 3}
      propertyPath: m_RootOrder
      value: 4
      objectReference: {fileID: 0}
    - target: {fileID: 2246676268534247106, guid: 41df90256a5eb83438aac6358728efd1,
        type: 3}
      propertyPath: m_LocalEulerAnglesHint.x
      value: 0
      objectReference: {fileID: 0}
    - target: {fileID: 2246676268534247106, guid: 41df90256a5eb83438aac6358728efd1,
        type: 3}
      propertyPath: m_LocalEulerAnglesHint.y
      value: 0
      objectReference: {fileID: 0}
    - target: {fileID: 2246676268534247106, guid: 41df90256a5eb83438aac6358728efd1,
        type: 3}
      propertyPath: m_LocalEulerAnglesHint.z
      value: 0
      objectReference: {fileID: 0}
    - target: {fileID: 2246676268534247106, guid: 41df90256a5eb83438aac6358728efd1,
        type: 3}
      propertyPath: m_LocalScale.y
      value: 33.59872
      objectReference: {fileID: 0}
    - target: {fileID: 2246676268534247106, guid: 41df90256a5eb83438aac6358728efd1,
        type: 3}
      propertyPath: m_LocalScale.x
      value: 11.008958
      objectReference: {fileID: 0}
    m_RemovedComponents: []
  m_SourcePrefab: {fileID: 100100000, guid: 41df90256a5eb83438aac6358728efd1, type: 3}
--- !u!1001 &1518280098
PrefabInstance:
  m_ObjectHideFlags: 0
  serializedVersion: 2
  m_Modification:
    m_TransformParent: {fileID: 0}
    m_Modifications:
    - target: {fileID: 2246676268534247110, guid: 41df90256a5eb83438aac6358728efd1,
        type: 3}
      propertyPath: m_Name
      value: BlockingWall (15)
      objectReference: {fileID: 0}
    - target: {fileID: 2246676268534247106, guid: 41df90256a5eb83438aac6358728efd1,
        type: 3}
      propertyPath: m_LocalPosition.x
      value: 8.747999
      objectReference: {fileID: 0}
    - target: {fileID: 2246676268534247106, guid: 41df90256a5eb83438aac6358728efd1,
        type: 3}
      propertyPath: m_LocalPosition.y
      value: -5.628
      objectReference: {fileID: 0}
    - target: {fileID: 2246676268534247106, guid: 41df90256a5eb83438aac6358728efd1,
        type: 3}
      propertyPath: m_LocalPosition.z
      value: 0
      objectReference: {fileID: 0}
    - target: {fileID: 2246676268534247106, guid: 41df90256a5eb83438aac6358728efd1,
        type: 3}
      propertyPath: m_LocalRotation.x
      value: 0
      objectReference: {fileID: 0}
    - target: {fileID: 2246676268534247106, guid: 41df90256a5eb83438aac6358728efd1,
        type: 3}
      propertyPath: m_LocalRotation.y
      value: 0
      objectReference: {fileID: 0}
    - target: {fileID: 2246676268534247106, guid: 41df90256a5eb83438aac6358728efd1,
        type: 3}
      propertyPath: m_LocalRotation.z
      value: 0.7071068
      objectReference: {fileID: 0}
    - target: {fileID: 2246676268534247106, guid: 41df90256a5eb83438aac6358728efd1,
        type: 3}
      propertyPath: m_LocalRotation.w
      value: 0.7071068
      objectReference: {fileID: 0}
    - target: {fileID: 2246676268534247106, guid: 41df90256a5eb83438aac6358728efd1,
        type: 3}
      propertyPath: m_RootOrder
      value: 12
      objectReference: {fileID: 0}
    - target: {fileID: 2246676268534247106, guid: 41df90256a5eb83438aac6358728efd1,
        type: 3}
      propertyPath: m_LocalEulerAnglesHint.x
      value: 0
      objectReference: {fileID: 0}
    - target: {fileID: 2246676268534247106, guid: 41df90256a5eb83438aac6358728efd1,
        type: 3}
      propertyPath: m_LocalEulerAnglesHint.y
      value: 0
      objectReference: {fileID: 0}
    - target: {fileID: 2246676268534247106, guid: 41df90256a5eb83438aac6358728efd1,
        type: 3}
      propertyPath: m_LocalEulerAnglesHint.z
      value: 90
      objectReference: {fileID: 0}
    - target: {fileID: 2246676268534247106, guid: 41df90256a5eb83438aac6358728efd1,
        type: 3}
      propertyPath: m_LocalScale.y
      value: 7.970581
      objectReference: {fileID: 0}
    - target: {fileID: 2246676268534247106, guid: 41df90256a5eb83438aac6358728efd1,
        type: 3}
      propertyPath: m_LocalScale.x
      value: 4.0488443
      objectReference: {fileID: 0}
    m_RemovedComponents: []
  m_SourcePrefab: {fileID: 100100000, guid: 41df90256a5eb83438aac6358728efd1, type: 3}
--- !u!1001 &1740509634
PrefabInstance:
  m_ObjectHideFlags: 0
  serializedVersion: 2
  m_Modification:
    m_TransformParent: {fileID: 0}
    m_Modifications:
    - target: {fileID: 3731982314551008370, guid: 5c39d6852430bbe4784894f73b614177,
        type: 3}
      propertyPath: m_Name
      value: AttractiveForce
      objectReference: {fileID: 0}
    - target: {fileID: 3731982314551008654, guid: 5c39d6852430bbe4784894f73b614177,
        type: 3}
      propertyPath: m_LocalPosition.x
      value: -0.54
      objectReference: {fileID: 0}
    - target: {fileID: 3731982314551008654, guid: 5c39d6852430bbe4784894f73b614177,
        type: 3}
      propertyPath: m_LocalPosition.y
      value: -1.33
      objectReference: {fileID: 0}
    - target: {fileID: 3731982314551008654, guid: 5c39d6852430bbe4784894f73b614177,
        type: 3}
      propertyPath: m_LocalPosition.z
      value: 0
      objectReference: {fileID: 0}
    - target: {fileID: 3731982314551008654, guid: 5c39d6852430bbe4784894f73b614177,
        type: 3}
      propertyPath: m_LocalRotation.x
      value: 0
      objectReference: {fileID: 0}
    - target: {fileID: 3731982314551008654, guid: 5c39d6852430bbe4784894f73b614177,
        type: 3}
      propertyPath: m_LocalRotation.y
      value: 0
      objectReference: {fileID: 0}
    - target: {fileID: 3731982314551008654, guid: 5c39d6852430bbe4784894f73b614177,
        type: 3}
      propertyPath: m_LocalRotation.z
      value: 0
      objectReference: {fileID: 0}
    - target: {fileID: 3731982314551008654, guid: 5c39d6852430bbe4784894f73b614177,
        type: 3}
      propertyPath: m_LocalRotation.w
      value: 1
      objectReference: {fileID: 0}
    - target: {fileID: 3731982314551008654, guid: 5c39d6852430bbe4784894f73b614177,
        type: 3}
      propertyPath: m_RootOrder
      value: 3
      objectReference: {fileID: 0}
    - target: {fileID: 3731982314551008654, guid: 5c39d6852430bbe4784894f73b614177,
        type: 3}
      propertyPath: m_LocalEulerAnglesHint.x
      value: 0
      objectReference: {fileID: 0}
    - target: {fileID: 3731982314551008654, guid: 5c39d6852430bbe4784894f73b614177,
        type: 3}
      propertyPath: m_LocalEulerAnglesHint.y
      value: 0
      objectReference: {fileID: 0}
    - target: {fileID: 3731982314551008654, guid: 5c39d6852430bbe4784894f73b614177,
        type: 3}
      propertyPath: m_LocalEulerAnglesHint.z
      value: 0
      objectReference: {fileID: 0}
    - target: {fileID: 3731982314551008654, guid: 5c39d6852430bbe4784894f73b614177,
        type: 3}
      propertyPath: m_LocalScale.x
      value: 0.97252
      objectReference: {fileID: 0}
    - target: {fileID: 3731982314551008654, guid: 5c39d6852430bbe4784894f73b614177,
        type: 3}
      propertyPath: m_LocalScale.y
      value: 0.97252
      objectReference: {fileID: 0}
    - target: {fileID: 3731982314551008654, guid: 5c39d6852430bbe4784894f73b614177,
        type: 3}
      propertyPath: m_LocalScale.z
      value: 0.97252
      objectReference: {fileID: 0}
    - target: {fileID: 3731982314551008368, guid: 5c39d6852430bbe4784894f73b614177,
        type: 3}
      propertyPath: m_ForceMagnitude
      value: -13
      objectReference: {fileID: 0}
    m_RemovedComponents: []
  m_SourcePrefab: {fileID: 100100000, guid: 5c39d6852430bbe4784894f73b614177, type: 3}
--- !u!1001 &1800459861
PrefabInstance:
  m_ObjectHideFlags: 0
  serializedVersion: 2
  m_Modification:
    m_TransformParent: {fileID: 0}
    m_Modifications:
    - target: {fileID: 7933080570195662534, guid: 3d6642c587548db4a85d8f076d5f0f60,
        type: 3}
      propertyPath: m_Name
      value: UncoloredCorner (2)
      objectReference: {fileID: 0}
    - target: {fileID: 4014571219289437333, guid: 3d6642c587548db4a85d8f076d5f0f60,
        type: 3}
      propertyPath: m_LocalPosition.x
      value: 10.75
      objectReference: {fileID: 0}
    - target: {fileID: 4014571219289437333, guid: 3d6642c587548db4a85d8f076d5f0f60,
        type: 3}
      propertyPath: m_LocalPosition.y
      value: -2.35
      objectReference: {fileID: 0}
    - target: {fileID: 4014571219289437333, guid: 3d6642c587548db4a85d8f076d5f0f60,
        type: 3}
      propertyPath: m_LocalPosition.z
      value: 0
      objectReference: {fileID: 0}
    - target: {fileID: 4014571219289437333, guid: 3d6642c587548db4a85d8f076d5f0f60,
        type: 3}
      propertyPath: m_LocalRotation.x
      value: -0
      objectReference: {fileID: 0}
    - target: {fileID: 4014571219289437333, guid: 3d6642c587548db4a85d8f076d5f0f60,
        type: 3}
      propertyPath: m_LocalRotation.y
      value: -0
      objectReference: {fileID: 0}
    - target: {fileID: 4014571219289437333, guid: 3d6642c587548db4a85d8f076d5f0f60,
        type: 3}
      propertyPath: m_LocalRotation.z
      value: 1
      objectReference: {fileID: 0}
    - target: {fileID: 4014571219289437333, guid: 3d6642c587548db4a85d8f076d5f0f60,
        type: 3}
      propertyPath: m_LocalRotation.w
      value: -0.00000078976143
      objectReference: {fileID: 0}
    - target: {fileID: 4014571219289437333, guid: 3d6642c587548db4a85d8f076d5f0f60,
        type: 3}
      propertyPath: m_RootOrder
      value: 14
      objectReference: {fileID: 0}
    - target: {fileID: 4014571219289437333, guid: 3d6642c587548db4a85d8f076d5f0f60,
        type: 3}
      propertyPath: m_LocalEulerAnglesHint.x
      value: 0
      objectReference: {fileID: 0}
    - target: {fileID: 4014571219289437333, guid: 3d6642c587548db4a85d8f076d5f0f60,
        type: 3}
      propertyPath: m_LocalEulerAnglesHint.y
      value: 0
      objectReference: {fileID: 0}
    - target: {fileID: 4014571219289437333, guid: 3d6642c587548db4a85d8f076d5f0f60,
        type: 3}
      propertyPath: m_LocalEulerAnglesHint.z
      value: 179.99998
      objectReference: {fileID: 0}
    m_RemovedComponents: []
  m_SourcePrefab: {fileID: 100100000, guid: 3d6642c587548db4a85d8f076d5f0f60, type: 3}
--- !u!1001 &1877623173
PrefabInstance:
  m_ObjectHideFlags: 0
  serializedVersion: 2
  m_Modification:
    m_TransformParent: {fileID: 0}
    m_Modifications:
    - target: {fileID: 1239494302922524874, guid: 93afd3c8625084846a7d499c76caf25f,
        type: 3}
      propertyPath: m_Name
      value: Level_Background_Texture (1)
      objectReference: {fileID: 0}
    - target: {fileID: 546678826816063160, guid: 93afd3c8625084846a7d499c76caf25f,
        type: 3}
      propertyPath: m_LocalPosition.x
      value: 0
      objectReference: {fileID: 0}
    - target: {fileID: 546678826816063160, guid: 93afd3c8625084846a7d499c76caf25f,
        type: 3}
      propertyPath: m_LocalPosition.y
      value: 0.2
      objectReference: {fileID: 0}
    - target: {fileID: 546678826816063160, guid: 93afd3c8625084846a7d499c76caf25f,
        type: 3}
      propertyPath: m_LocalPosition.z
      value: -1.6296333
      objectReference: {fileID: 0}
    - target: {fileID: 546678826816063160, guid: 93afd3c8625084846a7d499c76caf25f,
        type: 3}
      propertyPath: m_LocalRotation.x
      value: 0
      objectReference: {fileID: 0}
    - target: {fileID: 546678826816063160, guid: 93afd3c8625084846a7d499c76caf25f,
        type: 3}
      propertyPath: m_LocalRotation.y
      value: 0
      objectReference: {fileID: 0}
    - target: {fileID: 546678826816063160, guid: 93afd3c8625084846a7d499c76caf25f,
        type: 3}
      propertyPath: m_LocalRotation.z
      value: 0
      objectReference: {fileID: 0}
    - target: {fileID: 546678826816063160, guid: 93afd3c8625084846a7d499c76caf25f,
        type: 3}
      propertyPath: m_LocalRotation.w
      value: 1
      objectReference: {fileID: 0}
    - target: {fileID: 546678826816063160, guid: 93afd3c8625084846a7d499c76caf25f,
        type: 3}
      propertyPath: m_RootOrder
      value: 8
      objectReference: {fileID: 0}
    - target: {fileID: 546678826816063160, guid: 93afd3c8625084846a7d499c76caf25f,
        type: 3}
      propertyPath: m_LocalEulerAnglesHint.x
      value: 0
      objectReference: {fileID: 0}
    - target: {fileID: 546678826816063160, guid: 93afd3c8625084846a7d499c76caf25f,
        type: 3}
      propertyPath: m_LocalEulerAnglesHint.y
      value: 0
      objectReference: {fileID: 0}
    - target: {fileID: 546678826816063160, guid: 93afd3c8625084846a7d499c76caf25f,
        type: 3}
      propertyPath: m_LocalEulerAnglesHint.z
      value: 0
      objectReference: {fileID: 0}
    m_RemovedComponents: []
  m_SourcePrefab: {fileID: 100100000, guid: 93afd3c8625084846a7d499c76caf25f, type: 3}
